{
	"AssetInfoVersion": 2,
	"ShaderCodeToAssets": [
		{
			"ShaderMapHash": "CD2B01ED531CE4C68A1892DABE2A6131F535DBC8",
			"Assets": [
				"/ControlRig/Controls/ControlRigGizmoMaterial"
			]
		},
		{
			"ShaderMapHash": "C0B2A7F335FC62A023E1D59DE2ADBD3C72F13800",
			"Assets": [
				"/Engine/EngineDebugMaterials/DebugEditorMaterial"
			]
		},
		{
			"ShaderMapHash": "211087F62EFBB7C1BE4972E660D86BC3FFBFC5C0",
			"Assets": [
				"/Engine/EngineMaterials/GizmoMaterial"
			]
		},
		{
			"ShaderMapHash": "EACFA4020082090A51165F6F8F385B9C8ABCC6B2",
			"Assets": [
				"/Engine/EngineDebugMaterials/DebugMeshMaterial"
			]
		},
		{
			"ShaderMapHash": "B75365FD1D472D9BDDB570FDE8960C5F56236FF0",
			"Assets": [
				"/Engine/EngineMaterials/RemoveSurfaceMaterial"
			]
		},
		{
			"ShaderMapHash": "580BAEC620B37DE8A1FE8FC479D667FE85792074",
			"Assets": [
				"/HairStrands/Materials/HairMeshesDefaultMaterial",
				"/HairStrands/Materials/HairDefaultMaterial"
			]
		},
		{
			"ShaderMapHash": "6118C2EF81328E746F6736EACA89ADF8A3761CC6",
			"Assets": [
				"/HairStrands/Materials/HairCardsDefaultMaterial"
			]
		},
		{
			"ShaderMapHash": "84E02F5928102B7C930E738C991C08D607470873",
			"Assets": [
				"/Engine/EngineDebugMaterials/M_SimpleUnlitTranslucent"
			]
		},
		{
			"ShaderMapHash": "DC662FADED5C77B6D4456A8A78B04DCC16D274EC",
			"Assets": [
				"/Engine/EditorMaterials/Camera/CineMat"
			]
		},
		{
			"ShaderMapHash": "64F711963ED34B6AF1EE61A4B93FC8E3225B225E",
			"Assets": [
				"/Engine/VREditor/TransformGizmo/Xray",
				"/Game/Props/Goomba/03_-_Default",
				"/Game/Props/Goomba/07_-_Default",
				"/Game/Props/Goomba/1_2",
				"/Game/Props/Goomba/10_-_Default",
				"/Game/Props/Goomba/15_-_Default",
				"/Game/Props/Star/Body",
				"/Game/Props/Star/Eyes",
				"/Game/Props/Brick_Block/02_-_Default",
				"/Game/Props/Brick_Block/03_-_Default",
				"/Game/Props/Question_mark_box/02_-_Default_001",
				"/Game/Props/Question_mark_box/03_-_Default_001",
				"/Game/Props/Question_mark_box/09_-_Default"
			]
		},
		{
			"ShaderMapHash": "6BC4F45367FAC73ACCAFA8CD9667AB56C2F23608",
			"Assets": [
				"/Engine/VREditor/TransformGizmo/Main"
			]
		},
		{
			"ShaderMapHash": "C04C5B9338BB5E7A5A56E8EB14F31D97127A7D8B",
			"Assets": [
				"/Engine/VREditor/TransformGizmo/TranslucentTransformGizmoMaterial"
			]
		},
		{
			"ShaderMapHash": "EC0B9E24AAAB5DF9FA2D660C0AA56DC12CB5C37E",
			"Assets": [
				"/Engine/EngineMaterials/DefaultLightFunctionMaterial"
			]
		},
		{
			"ShaderMapHash": "14454FD8BB2A4B33FF05E398A6E22E6E796EF007",
			"Assets": [
				"/Engine/BasicShapes/BasicShapeMaterial"
			]
		},
		{
			"ShaderMapHash": "025CA632F741E0A60C5152EFB0BEB2D30B23662D",
			"Assets": [
				"/Game/StarterContent/Materials/M_AssetPlatform"
			]
		},
		{
			"ShaderMapHash": "11AB4D18B6E4F96C0476760488FEDC57F8D9E3F7",
			"Assets": [
				"/Game/StarterContent/Materials/M_Basic_Wall"
			]
		},
		{
			"ShaderMapHash": "A00B748BDA40B3F60FEFF59F05E123A9A20C741D",
			"Assets": [
				"/Game/StarterContent/Materials/M_Glass"
			]
		},
		{
			"ShaderMapHash": "494387BC6AE4F268FDF05E75E1E6F960DFF88D67",
			"Assets": [
				"/Game/Material/M_Power_Up"
			]
		},
		{
			"ShaderMapHash": "9CCBF56CDD8E0AD8CC31A8435C88D743B98E9ED1",
			"Assets": [
				"/Engine/EngineMaterials/FlattenMaterial_WS_Normal_VT"
			]
		},
		{
			"ShaderMapHash": "51C7B05DD3F62879F54D0D1972E720772888456B",
			"Assets": [
				"/Engine/EngineMaterials/FlattenMaterial_VT",
				"/Engine/EngineMaterials/FlattenMaterial"
			]
		},
		{
			"ShaderMapHash": "E1F40DFD96D8AE3D0F8486C03725DDC2EEC53AD0",
			"Assets": [
				"/Engine/EngineMaterials/M_InvalidLightmapSettings"
			]
		},
		{
			"ShaderMapHash": "A6AA03CB707A2A35E6B21885A08ED26D847E4CE1",
			"Assets": [
				"/Engine/EngineMaterials/EmissiveMeshMaterial"
			]
		},
		{
			"ShaderMapHash": "58A68BB5B77A48E89954C130CB804AAF701FD854",
			"Assets": [
				"/Engine/EngineDebugMaterials/M_VolumeRenderSphereTracePP"
			]
		},
		{
			"ShaderMapHash": "F9263927B9A447444CEB25F0683B99FA6EDE8534",
			"Assets": [
				"/Engine/EngineMaterials/PhAT_JointLimitMaterial"
			]
		},
		{
			"ShaderMapHash": "3B599E1E84C6BED8F66AF5A2D1125FB845FE4CAB",
			"Assets": [
				"/ControlRig/M_Manip"
			]
		},
		{
			"ShaderMapHash": "CEB6981B8784CDFA2490593B8D2E0D49BD6FF41E",
			"Assets": [
				"/Paper2D/DefaultSpriteMaterial"
			]
		},
		{
			"ShaderMapHash": "ECC697C48BA966F0825110EFF887124C8B715EF3",
			"Assets": [
				"/Engine/VREditor/TransformGizmo/TransformGizmoMaterial"
			]
		},
		{
			"ShaderMapHash": "6B155BF25ABE1B5D74C1CCF6398D60B69E8E7C0A",
			"Assets": [
				"/Engine/EditorMaterials/WorldPartition/WorldPartitionSpatialHashGridPreviewMaterial"
			]
		},
		{
			"ShaderMapHash": "7E49B2C7E4F45A769712E5F5D597423E50A31090",
			"Assets": [
				"/HairStrands/Materials/HairDebugMaterial"
			]
		},
		{
			"ShaderMapHash": "3F7895F3B3EC85C81839B53617DEF4F1A94DA828",
			"Assets": [
				"/Engine/EngineSky/VolumetricClouds/m_SimpleVolumetricCloud"
			]
		},
		{
			"ShaderMapHash": "8C73641D32B7DA2DEF6B40664D0A99BA9A0CD673",
			"Assets": [
				"/Engine/EngineMaterials/DefaultPostProcessMaterial"
			]
		},
		{
			"ShaderMapHash": "1A91267099E00CB6E114581FBC960569A39E5CE2",
			"Assets": [
				"/Engine/EngineMaterials/DefaultDeferredDecalMaterial"
			]
		},
		{
			"ShaderMapHash": "6CE9731DBD31520A0F28233FD6C531B40ED2E593",
			"Assets": [
				"/Engine/EngineMaterials/DefaultMaterial"
			]
		},
		{
			"ShaderMapHash": "25505245776F29D612F7A2A47DF00B8F08CF6DFD",
			"Assets": [
				"/Engine/EngineMaterials/WorldGridMaterial"
			]
		},
		{
			"ShaderMapHash": "8ACAFDF4D8347920962FFA6E6E976F915609C626",
			"Assets": [
				"/Engine/EngineMaterials/DefaultTextMaterialOpaque"
			]
		},
		{
			"ShaderMapHash": "B43D983CD3BDA59466984205703D5D9E6F5FE1F6",
			"Assets": [
				"/Engine/EngineMaterials/Widget3DPassThrough",
				"/Engine/EngineMaterials/Widget3DPassThrough_Translucent_OneSided"
			]
		},
		{
			"ShaderMapHash": "B150AA951472CA41983BB3A161BDDC7C261898CA",
			"Assets": [
				"/Engine/EngineMaterials/PPM_DefaultCalibrationGrayscale"
			]
		},
		{
			"ShaderMapHash": "CC55EA1DC806B30DD6AE1628892C72F7943F02A8",
			"Assets": [
				"/Engine/EngineMaterials/PPM_DefaultCalibrationColor"
			]
		},
		{
			"ShaderMapHash": "CA5E52CACC8C177679D06C910BA38FFD19582423",
			"Assets": [
				"/Engine/EditorMaterials/PreviewShadowIndicatorMaterial"
			]
		},
		{
			"ShaderMapHash": "1C914D1B92823DC2D0DE46C2FC2F11616AB9A370",
			"Assets": [
				"/Game/Props/coin/Coin_Material"
			]
		},
		{
			"ShaderMapHash": "047E2E1E49B7D723E1BFF6E8D0DF4D3F2A304875",
			"Assets": [
				"/Game/StarterContent/Props/Materials/M_Door"
			]
		},
		{
			"ShaderMapHash": "457EC0B92FD6A9246B0BD5771C8575318E692746",
			"Assets": [
				"/Game/Props/Mushroom/Body",
				"/Game/Props/Mushroom/Eyes",
				"/Game/Props/Mushroom/Head"
			]
		},
		{
			"ShaderMapHash": "CE5D72DE311D46F68FCE2027B9A3DAF2DB389E47",
			"Assets": [
				"/Paper2D/OpaqueUnlitSpriteMaterial"
			]
		},
		{
			"ShaderMapHash": "E171CFA61F0313D35C414F4721E393617AAFB691",
			"Assets": [
				"/SpeedTreeImporter/SpeedTree9/SpeedTreeBillboardMaster"
			]
		},
		{
			"ShaderMapHash": "14CC31EF34BEE66179FCF777D126490DD5DFA5DD",
			"Assets": [
				"/SpeedTreeImporter/SpeedTree9/SpeedTreeMaster"
			]
		},
		{
			"ShaderMapHash": "648B34FBF1A6265873DAA2FDE756E9E90165B27A",
			"Assets": [
				"/Engine/EngineMaterials/Widget3DPassThrough_Masked"
			]
		},
		{
			"ShaderMapHash": "08AB2FB6F0B0D7F55EC432ED817F96CBDE053FE7",
			"Assets": [
				"/Engine/EngineMaterials/Widget3DPassThrough_Opaque"
			]
		},
		{
			"ShaderMapHash": "23B1EF696CB55868211558A2D14ECFFBB29B851A",
			"Assets": [
				"/Engine/EngineMaterials/Widget3DPassThrough_Translucent"
			]
		},
		{
			"ShaderMapHash": "3B2B19FA5414E6DAD9643AF0062E6F480FA16D8E",
			"Assets": [
				"/Engine/EngineMaterials/Widget3DPassThrough_Masked_OneSided"
			]
		},
		{
			"ShaderMapHash": "3A21A22B26B50FF022F4DB6451E17D307A26F2AF",
			"Assets": [
				"/Engine/EngineMaterials/Widget3DPassThrough_Opaque_OneSided"
			]
		},
		{
			"ShaderMapHash": "DA6A46441B03BD6405ECE8F12F79ED7F1B7E636A",
			"Assets": [
				"/Game/Characters/Mannequins/Materials/M_Mannequin",
				"/Game/Characters/Mannequins/Materials/Instances/Manny/MI_Manny_01"
			]
		},
		{
			"ShaderMapHash": "82FA1B69661E3A54D3C1A73DB12FD906CAA494AB",
			"Assets": [
				"/Game/LevelPrototyping/Materials/M_PrototypeGrid"
			]
		},
		{
			"ShaderMapHash": "419EE9E96F6EFD06A21D0F8BA7433C8F5C9FDF70",
			"Assets": [
				"/Game/LevelPrototyping/Materials/MI_PrototypeGrid_Gray"
			]
		},
		{
			"ShaderMapHash": "C145D2E6C8ED4E31B06F436B1233CC96D9412949",
			"Assets": [
				"/Game/Characters/Mannequins/Materials/Instances/Manny/MI_Manny_02"
			]
		}
	]
}