Containers:
  [+] MainContainer:
   |            ID: 0x0000000000000000
   |        Bounds: IsValid=false, Min=(X=0.000 Y=0.000 Z=0.000), Max=(X=0.000 Y=0.000 Z=0.000)
   |     Transform: 0.000000,0.000000,0.000000|0.000000,0.000000,-0.000000|1.000000,1.000000,1.000000
   |     Container: /Game/ThirdPerson/Maps/ThirdPersonMap
   |  ActorDescs:
   |      - Guid:08F9DC56444CFFF3F13B379E81EF05BC Class:StaticMeshActor Name:StaticMeshActor_16 SpatiallyLoaded:true Bounds:IsValid=true, Min=(X=400.000 Y=2600.000 Z=0.000), Max=(X=700.000 Y=2900.000 Z=200.000) RuntimeGrid:None EditorOnly:false LevelBoundsRelevant:true HLODRelevant:true FolderPath:Block03 FolderGuid:7B7009C345D3D6DD94D3429E1D79C034 Parent:00000000000000000000000000000000
   |      - Guid:0A733B864C327F0B589EC8BBDD0265BC Class:StaticMeshActor Name:StaticMeshActor_13 SpatiallyLoaded:true Bounds:IsValid=true, Min=(X=1800.000 Y=1500.000 Z=0.000), Max=(X=2000.000 Y=2200.000 Z=100.000) RuntimeGrid:None EditorOnly:false LevelBoundsRelevant:true HLODRelevant:true FolderPath:Block01 FolderGuid:7D23E5AE4C2A421F86AF6986D87E6D05 Parent:00000000000000000000000000000000
   |      - Guid:1A789DC8415097E9856E5DB60740F01D Class:StaticMeshActor Name:StaticMeshActor_34 SpatiallyLoaded:true Bounds:IsValid=true, Min=(X=2000.000 Y=500.000 Z=0.000), Max=(X=2200.000 Y=700.000 Z=100.000) RuntimeGrid:None EditorOnly:false LevelBoundsRelevant:true HLODRelevant:true FolderPath:Cylinder FolderGuid:D075E5BA49330D3EC2503D81A7CF88D1 Parent:00000000000000000000000000000000
   |      - Guid:1B9598344A1F20E1A5125DA8A7E9FC0F Class:StaticMeshActor Name:StaticMeshActor_22 SpatiallyLoaded:true Bounds:IsValid=true, Min=(X=300.000 Y=2600.000 Z=0.000), Max=(X=400.000 Y=2700.000 Z=200.000) RuntimeGrid:None EditorOnly:false LevelBoundsRelevant:true HLODRelevant:true FolderPath:Block03 FolderGuid:7B7009C345D3D6DD94D3429E1D79C034 Parent:00000000000000000000000000000000
   |      - Guid:26B8C3BE41021A3F42B61FA534F9181E Class:StaticMeshActor Name:StaticMeshActor_20 SpatiallyLoaded:true Bounds:IsValid=true, Min=(X=2500.000 Y=2700.000 Z=0.000), Max=(X=2600.000 Y=2800.000 Z=200.000) RuntimeGrid:None EditorOnly:false LevelBoundsRelevant:true HLODRelevant:true FolderPath:Block02 FolderGuid:EBA23F8248252949750E43911A3A1CDD Parent:00000000000000000000000000000000
   |      - Guid:2FB58999456391D349DC0F86DAC136ED Class:SkyLight Name:SkyLight_1 SpatiallyLoaded:false Bounds:IsValid=true, Min=(X=0.000 Y=0.000 Z=690.000), Max=(X=0.000 Y=0.000 Z=690.000) RuntimeGrid:None EditorOnly:false LevelBoundsRelevant:false HLODRelevant:false FolderPath:Lighting FolderGuid:963EC3EB4002CCE9759E2EBA541A873A Parent:00000000000000000000000000000000
   |      - Guid:316CF2A6494ACA4C0E4180A87D36AB8F Class:ExponentialHeightFog Name:ExponentialHeightFog_0 SpatiallyLoaded:false Bounds:IsValid=true, Min=(X=-5600.000 Y=-50.000 Z=-6850.000), Max=(X=-5600.000 Y=-50.000 Z=-6850.000) RuntimeGrid:None EditorOnly:false LevelBoundsRelevant:false HLODRelevant:false FolderPath:Lighting FolderGuid:963EC3EB4002CCE9759E2EBA541A873A Parent:00000000000000000000000000000000
   |      - Guid:3A00AA1C422CE54C0BDB60BAF471BFBB Class:PlayerStart Name:PlayerStart_0 SpatiallyLoaded:false Bounds:IsValid=true, Min=(X=860.000 Y=1070.000 Z=0.013), Max=(X=940.000 Y=1150.000 Z=184.013) RuntimeGrid:None EditorOnly:false LevelBoundsRelevant:true HLODRelevant:false FolderPath:None FolderGuid:00000000000000000000000000000000 Parent:00000000000000000000000000000000
   |      - Guid:43815E84492231AFC407F59E3C28176B Class:StaticMeshActor Name:StaticMeshActor_4 SpatiallyLoaded:true Bounds:IsValid=true, Min=(X=2900.000 Y=100.000 Z=0.000), Max=(X=3000.000 Y=3400.000 Z=400.000) RuntimeGrid:None EditorOnly:false LevelBoundsRelevant:true HLODRelevant:true FolderPath:Playground FolderGuid:C73F09FC4215536B1DCE2A9E0A830C70 Parent:00000000000000000000000000000000
   |      - Guid:49AA20A049CA519BC675DFBBF5028FF3 Class:Actor Name:BP_CheckPoint_C_UAID_D45D64D0FBDA3F7601_2066268855 SpatiallyLoaded:true Bounds:IsValid=true, Min=(X=1470.000 Y=1710.000 Z=136.000), Max=(X=1670.000 Y=1910.000 Z=264.000) RuntimeGrid:None EditorOnly:false LevelBoundsRelevant:true HLODRelevant:false FolderPath:None FolderGuid:00000000000000000000000000000000 Parent:00000000000000000000000000000000
   |      - Guid:4D3BE93F4146AAAC8BBE79999D96D57F Class:VolumetricCloud Name:VolumetricCloud_0 SpatiallyLoaded:false Bounds:IsValid=true, Min=(X=0.000 Y=0.000 Z=820.000), Max=(X=0.000 Y=0.000 Z=820.000) RuntimeGrid:None EditorOnly:false LevelBoundsRelevant:false HLODRelevant:false FolderPath:Lighting FolderGuid:963EC3EB4002CCE9759E2EBA541A873A Parent:00000000000000000000000000000000
   |      - Guid:59CE89D047C75FBE41189BA8ABD2CA2A Class:StaticMeshActor Name:StaticMeshActor_18 SpatiallyLoaded:true Bounds:IsValid=true, Min=(X=2500.000 Y=2800.000 Z=0.000), Max=(X=2600.000 Y=2900.000 Z=200.000) RuntimeGrid:None EditorOnly:false LevelBoundsRelevant:true HLODRelevant:true FolderPath:Block02 FolderGuid:EBA23F8248252949750E43911A3A1CDD Parent:00000000000000000000000000000000
   |      - Guid:5B97F4A64FB21F77EFC44386BF705B4C Class:TextRenderActor Name:TextRenderActor_1 SpatiallyLoaded:true Bounds:IsValid=true, Min=(X=-0.100 Y=1100.000 Z=65.013), Max=(X=-0.100 Y=2392.308 Z=215.013) RuntimeGrid:None EditorOnly:false LevelBoundsRelevant:true HLODRelevant:false FolderPath:None FolderGuid:00000000000000000000000000000000 Parent:00000000000000000000000000000000
   |      - Guid:5E4DB4154690C8B4EB14EAA9E92FAAFF Class:StaticMeshActor Name:StaticMeshActor_33 SpatiallyLoaded:true Bounds:IsValid=true, Min=(X=2000.000 Y=700.000 Z=0.000), Max=(X=2200.000 Y=900.000 Z=100.000) RuntimeGrid:None EditorOnly:false LevelBoundsRelevant:true HLODRelevant:true FolderPath:Cylinder FolderGuid:D075E5BA49330D3EC2503D81A7CF88D1 Parent:00000000000000000000000000000000
   |      - Guid:6BAF4DDD444C60371492D3919DB42C97 Class:WorldDataLayers Name:WorldDataLayers SpatiallyLoaded:false Bounds:IsValid=true, Min=(X=0.000 Y=0.000 Z=0.000), Max=(X=0.000 Y=0.000 Z=0.000) RuntimeGrid:None EditorOnly:false LevelBoundsRelevant:false HLODRelevant:false FolderPath:None FolderGuid:00000000000000000000000000000000 Parent:00000000000000000000000000000000
   |      - Guid:745A095B4BA4E157E4537FA63F5B7B43 Class:StaticMeshActor Name:StaticMeshActor_2 SpatiallyLoaded:true Bounds:IsValid=true, Min=(X=1100.000 Y=2000.000 Z=0.013), Max=(X=1200.000 Y=2100.000 Z=100.013) RuntimeGrid:None EditorOnly:false LevelBoundsRelevant:true HLODRelevant:false FolderPath:None FolderGuid:00000000000000000000000000000000 Parent:00000000000000000000000000000000
   |      - Guid:7587444F4FB13B9B9CD114BBE7885340 Class:StaticMeshActor Name:StaticMeshActor_19 SpatiallyLoaded:true Bounds:IsValid=true, Min=(X=2500.000 Y=2600.000 Z=0.000), Max=(X=2600.000 Y=2700.000 Z=200.000) RuntimeGrid:None EditorOnly:false LevelBoundsRelevant:true HLODRelevant:true FolderPath:Block02 FolderGuid:EBA23F8248252949750E43911A3A1CDD Parent:00000000000000000000000000000000
   |      - Guid:785CDCF94C13B04D5401E983F7461FFD Class:Actor Name:fort_dungeon_C_UAID_38D547E19CCE317601_1684753393 SpatiallyLoaded:true Bounds:IsValid=true, Min=(X=1476.000 Y=2336.000 Z=-32.000), Max=(X=1604.000 Y=2464.000 Z=100.000) RuntimeGrid:None EditorOnly:false LevelBoundsRelevant:true HLODRelevant:true FolderPath:None FolderGuid:00000000000000000000000000000000 Parent:00000000000000000000000000000000
   |      - Guid:79C9B0C246824948C2428ABA13657451 Class:StaticMeshActor Name:StaticMeshActor_25 SpatiallyLoaded:true Bounds:IsValid=true, Min=(X=1200.000 Y=2200.000 Z=0.000), Max=(X=1300.000 Y=2300.000 Z=200.000) RuntimeGrid:None EditorOnly:false LevelBoundsRelevant:true HLODRelevant:true FolderPath:Block01 FolderGuid:7D23E5AE4C2A421F86AF6986D87E6D05 Parent:00000000000000000000000000000000
   |      - Guid:7AF8F55F4E3868C7D7ED31835C8BF639 Class:Actor Name:fort_dungeon_C_UAID_38D547E19CCE317601_1681715392 SpatiallyLoaded:true Bounds:IsValid=true, Min=(X=1346.000 Y=2336.000 Z=-32.000), Max=(X=1474.000 Y=2464.000 Z=100.000) RuntimeGrid:None EditorOnly:false LevelBoundsRelevant:true HLODRelevant:true FolderPath:None FolderGuid:00000000000000000000000000000000 Parent:00000000000000000000000000000000
   |      - Guid:7C172A0740B33B6D38EEF38A63E0B945 Class:StaticMeshActor Name:StaticMeshActor_3 SpatiallyLoaded:true Bounds:IsValid=true, Min=(X=1300.000 Y=600.000 Z=0.000), Max=(X=1700.000 Y=800.000 Z=30.000) RuntimeGrid:None EditorOnly:false LevelBoundsRelevant:true HLODRelevant:true FolderPath:None FolderGuid:00000000000000000000000000000000 Parent:00000000000000000000000000000000
   |      - Guid:94F6D9A645798F5BAD0B58BEED8F27F5 Class:StaticMeshActor Name:StaticMeshActor_32 SpatiallyLoaded:true Bounds:IsValid=true, Min=(X=2200.000 Y=700.000 Z=-0.000), Max=(X=2400.000 Y=900.000 Z=100.000) RuntimeGrid:None EditorOnly:false LevelBoundsRelevant:true HLODRelevant:true FolderPath:Cylinder FolderGuid:D075E5BA49330D3EC2503D81A7CF88D1 Parent:00000000000000000000000000000000
   |      - Guid:961864A84FF6F65B68F2A3BE5819D538 Class:StaticMeshActor Name:StaticMeshActor_8 SpatiallyLoaded:true Bounds:IsValid=true, Min=(X=1200.000 Y=1700.000 Z=0.000), Max=(X=1800.000 Y=2200.000 Z=200.000) RuntimeGrid:None EditorOnly:false LevelBoundsRelevant:true HLODRelevant:true FolderPath:Block01 FolderGuid:7D23E5AE4C2A421F86AF6986D87E6D05 Parent:00000000000000000000000000000000
   |      - Guid:9765ECF54858C165188C95B28D88016B Class:StaticMeshActor Name:StaticMeshActor_12 SpatiallyLoaded:true Bounds:IsValid=true, Min=(X=1300.000 Y=2600.000 Z=0.000), Max=(X=2500.000 Y=2900.000 Z=200.000) RuntimeGrid:None EditorOnly:false LevelBoundsRelevant:true HLODRelevant:true FolderPath:Block02 FolderGuid:EBA23F8248252949750E43911A3A1CDD Parent:00000000000000000000000000000000
   |      - Guid:9BFF363746062F457E2F92A4631DBA20 Class:StaticMeshActor Name:StaticMeshActor_11 SpatiallyLoaded:true Bounds:IsValid=true, Min=(X=481.699 Y=2271.699 Z=0.013), Max=(X=618.301 Y=2408.301 Z=100.013) RuntimeGrid:None EditorOnly:false LevelBoundsRelevant:true HLODRelevant:false FolderPath:None FolderGuid:00000000000000000000000000000000 Parent:00000000000000000000000000000000
   |      - Guid:A56216954B2165CF0F35A886B537D536 Class:StaticMeshActor Name:StaticMeshActor_0 SpatiallyLoaded:true Bounds:IsValid=true, Min=(X=-0.000 Y=100.000 Z=0.000), Max=(X=100.000 Y=3400.000 Z=400.000) RuntimeGrid:None EditorOnly:false LevelBoundsRelevant:true HLODRelevant:true FolderPath:Playground FolderGuid:C73F09FC4215536B1DCE2A9E0A830C70 Parent:00000000000000000000000000000000
   |      - Guid:A72E110D4F5FEB965F18779AF8E36839 Class:Character Name:Goomba_C_UAID_D45D64D0FBDA147801_1523978399 SpatiallyLoaded:true Bounds:IsValid=true, Min=(X=1330.000 Y=876.000 Z=13.156), Max=(X=1450.000 Y=1004.000 Z=174.000) RuntimeGrid:None EditorOnly:false LevelBoundsRelevant:true HLODRelevant:false FolderPath:None FolderGuid:00000000000000000000000000000000 Parent:00000000000000000000000000000000
   |      - Guid:AB74120142217676C6EC818E6B49412B Class:StaticMeshActor Name:StaticMeshActor_15 SpatiallyLoaded:true Bounds:IsValid=true, Min=(X=1800.000 Y=2100.000 Z=100.000), Max=(X=2000.000 Y=2200.000 Z=200.000) RuntimeGrid:None EditorOnly:false LevelBoundsRelevant:true HLODRelevant:true FolderPath:Block01 FolderGuid:7D23E5AE4C2A421F86AF6986D87E6D05 Parent:00000000000000000000000000000000
   |      - Guid:B785ED2844B84CFB91E7F39FE661CD99 Class:DirectionalLight Name:DirectionalLight_0 SpatiallyLoaded:false Bounds:IsValid=true, Min=(X=-1048576.000 Y=-1048576.000 Z=-1048576.000), Max=(X=1048576.000 Y=1048576.000 Z=1048576.000) RuntimeGrid:None EditorOnly:false LevelBoundsRelevant:false HLODRelevant:false FolderPath:Lighting FolderGuid:963EC3EB4002CCE9759E2EBA541A873A Parent:00000000000000000000000000000000
   |      - Guid:BC08B79C4EA3C961CFF75EBBE83B367D Class:StaticMeshActor Name:StaticMeshActor_5 SpatiallyLoaded:true Bounds:IsValid=true, Min=(X=0.000 Y=0.000 Z=0.000), Max=(X=3000.000 Y=100.000 Z=400.000) RuntimeGrid:None EditorOnly:false LevelBoundsRelevant:true HLODRelevant:true FolderPath:Playground FolderGuid:C73F09FC4215536B1DCE2A9E0A830C70 Parent:00000000000000000000000000000000
   |      - Guid:C15C2C8D4EA4ADE0BD1349AFD814988B Class:StaticMeshActor Name:StaticMeshActor_14 SpatiallyLoaded:true Bounds:IsValid=true, Min=(X=1800.000 Y=1700.000 Z=100.000), Max=(X=2000.000 Y=2100.000 Z=200.000) RuntimeGrid:None EditorOnly:false LevelBoundsRelevant:true HLODRelevant:true FolderPath:Block01 FolderGuid:7D23E5AE4C2A421F86AF6986D87E6D05 Parent:00000000000000000000000000000000
   |      - Guid:C64E4BD44F94A7EDC8951BB36CD5F637 Class:Actor Name:Coin_Base_C_UAID_D45D64D0FBDAD27601_1664884728 SpatiallyLoaded:true Bounds:IsValid=true, Min=(X=1768.000 Y=1008.000 Z=48.000), Max=(X=1832.000 Y=1072.000 Z=112.000) RuntimeGrid:None EditorOnly:false LevelBoundsRelevant:true HLODRelevant:false FolderPath:None FolderGuid:00000000000000000000000000000000 Parent:00000000000000000000000000000000
   |      - Guid:CCFF262C46EEFFDF319E7F9539CE697E Class:SkyAtmosphere Name:SkyAtmosphere_0 SpatiallyLoaded:false Bounds:IsValid=true, Min=(X=0.000 Y=0.000 Z=1020.000), Max=(X=0.000 Y=0.000 Z=1020.000) RuntimeGrid:None EditorOnly:false LevelBoundsRelevant:false HLODRelevant:false FolderPath:Lighting FolderGuid:963EC3EB4002CCE9759E2EBA541A873A Parent:00000000000000000000000000000000
   |      - Guid:DBC730174A7F51D9E14433AEF0C30A39 Class:StaticMeshActor Name:StaticMeshActor_24 SpatiallyLoaded:true Bounds:IsValid=true, Min=(X=300.000 Y=2700.000 Z=0.000), Max=(X=400.000 Y=2800.000 Z=200.000) RuntimeGrid:None EditorOnly:false LevelBoundsRelevant:true HLODRelevant:true FolderPath:Block03 FolderGuid:7B7009C345D3D6DD94D3429E1D79C034 Parent:00000000000000000000000000000000
   |      - Guid:DBDFDD2E49F4E21E38D2298BC94FE787 Class:NavMeshBoundsVolume Name:NavMeshBoundsVolume_UAID_D45D64D0FBDA187801_1364334104 SpatiallyLoaded:false Bounds:IsValid=true, Min=(X=55.000 Y=140.000 Z=0.000), Max=(X=2705.000 Y=3840.000 Z=200.000) RuntimeGrid:None EditorOnly:false LevelBoundsRelevant:false HLODRelevant:false FolderPath:None FolderGuid:00000000000000000000000000000000 Parent:00000000000000000000000000000000
   |      - Guid:DE3A079B4635A6D8D620CCBC6C0BB1C0 Class:StaticMeshActor Name:StaticMeshActor_35 SpatiallyLoaded:true Bounds:IsValid=true, Min=(X=2200.000 Y=500.000 Z=0.000), Max=(X=2400.000 Y=700.000 Z=100.000) RuntimeGrid:None EditorOnly:false LevelBoundsRelevant:true HLODRelevant:true FolderPath:Cylinder FolderGuid:D075E5BA49330D3EC2503D81A7CF88D1 Parent:00000000000000000000000000000000
   |      - Guid:E73E39994140315EB81324BF0A5D6400 Class:StaticMeshActor Name:StaticMeshActor_10 SpatiallyLoaded:true Bounds:IsValid=true, Min=(X=992.077 Y=2692.077 Z=0.013), Max=(X=1107.923 Y=2807.923 Z=100.013) RuntimeGrid:None EditorOnly:false LevelBoundsRelevant:true HLODRelevant:false FolderPath:None FolderGuid:00000000000000000000000000000000 Parent:00000000000000000000000000000000
   |      - Guid:E864EE5542C27D6674BEBB9312F02BB4 Class:StaticMeshActor Name:StaticMeshActor_23 SpatiallyLoaded:true Bounds:IsValid=true, Min=(X=300.000 Y=2800.000 Z=0.000), Max=(X=400.000 Y=2900.000 Z=200.000) RuntimeGrid:None EditorOnly:false LevelBoundsRelevant:true HLODRelevant:true FolderPath:Block03 FolderGuid:7B7009C345D3D6DD94D3429E1D79C034 Parent:00000000000000000000000000000000
   |      - Guid:EC4E0C944CE6AC6E784BC6BB2916EA13 Class:StaticMeshActor Name:StaticMeshActor_UAID_A4AE111137DC5EFB00_1110535423 SpatiallyLoaded:true Bounds:IsValid=true, Min=(X=-1638400.000 Y=-1638400.000 Z=-1638400.000), Max=(X=1638400.000 Y=1638400.000 Z=1638400.000) RuntimeGrid:None EditorOnly:false LevelBoundsRelevant:true HLODRelevant:true FolderPath:Lighting FolderGuid:963EC3EB4002CCE9759E2EBA541A873A Parent:00000000000000000000000000000000
   |      - Guid:EDAA34A64E50B17535C2EB826C12557D Class:StaticMeshActor Name:StaticMeshActor_9 SpatiallyLoaded:true Bounds:IsValid=true, Min=(X=1400.000 Y=1500.000 Z=0.000), Max=(X=1800.000 Y=1700.000 Z=100.000) RuntimeGrid:None EditorOnly:false LevelBoundsRelevant:true HLODRelevant:true FolderPath:Block01 FolderGuid:7D23E5AE4C2A421F86AF6986D87E6D05 Parent:00000000000000000000000000000000
   |      - Guid:EF8D80884818524828C2349926EC3FB9 Class:Actor Name:fort_dungeon_C_UAID_38D547E19CCE317601_1696425394 SpatiallyLoaded:true Bounds:IsValid=true, Min=(X=1606.000 Y=2336.000 Z=-32.000), Max=(X=1734.000 Y=2464.000 Z=100.000) RuntimeGrid:None EditorOnly:false LevelBoundsRelevant:true HLODRelevant:true FolderPath:None FolderGuid:00000000000000000000000000000000 Parent:00000000000000000000000000000000
   |      - Guid:F1924B8D48954B30891B2DB6A694F9CC Class:StaticMeshActor Name:StaticMeshActor_1 SpatiallyLoaded:true Bounds:IsValid=true, Min=(X=0.000 Y=0.000 Z=-50.000), Max=(X=3000.000 Y=3500.000 Z=0.000) RuntimeGrid:None EditorOnly:false LevelBoundsRelevant:true HLODRelevant:true FolderPath:Playground FolderGuid:C73F09FC4215536B1DCE2A9E0A830C70 Parent:00000000000000000000000000000000
   |      - Guid:F4AAA1CA4D204EB96E54F5BD1EB46A62 Class:StaticMeshActor Name:StaticMeshActor_7 SpatiallyLoaded:true Bounds:IsValid=true, Min=(X=1300.000 Y=2200.000 Z=0.000), Max=(X=1500.000 Y=2300.000 Z=200.000) RuntimeGrid:None EditorOnly:false LevelBoundsRelevant:true HLODRelevant:true FolderPath:Block01 FolderGuid:7D23E5AE4C2A421F86AF6986D87E6D05 Parent:00000000000000000000000000000000
   |      - Guid:F5E3FEB3450C49844FD93DA8E083C8AD Class:PostProcessVolume Name:PostProcessVolume_0 SpatiallyLoaded:false Bounds:IsValid=true, Min=(X=0.000 Y=0.000 Z=400.000), Max=(X=200.000 Y=200.000 Z=600.000) RuntimeGrid:None EditorOnly:false LevelBoundsRelevant:false HLODRelevant:false FolderPath:Lighting FolderGuid:963EC3EB4002CCE9759E2EBA541A873A Parent:00000000000000000000000000000000
   |      - Guid:F703AD214DE20FBE9DA411817BF79E0A Class:StaticMeshActor Name:StaticMeshActor_21 SpatiallyLoaded:true Bounds:IsValid=true, Min=(X=1500.000 Y=2200.000 Z=0.000), Max=(X=1600.000 Y=2300.000 Z=200.000) RuntimeGrid:None EditorOnly:false LevelBoundsRelevant:true HLODRelevant:true FolderPath:Block01 FolderGuid:7D23E5AE4C2A421F86AF6986D87E6D05 Parent:00000000000000000000000000000000
   |      - Guid:FF698C67459ADB4982D7759C0905EE9F Class:StaticMeshActor Name:StaticMeshActor_6 SpatiallyLoaded:true Bounds:IsValid=true, Min=(X=0.000 Y=3400.000 Z=0.000), Max=(X=3000.000 Y=3500.000 Z=400.000) RuntimeGrid:None EditorOnly:false LevelBoundsRelevant:true HLODRelevant:true FolderPath:Playground FolderGuid:C73F09FC4215536B1DCE2A9E0A830C70 Parent:00000000000000000000000000000000
