﻿Log file open, 03/04/25 10:29:19
LogWindows: Failed to load 'aqProf.dll' (GetLastError=126)
LogWindows: File 'aqProf.dll' does not exist
LogProfilingDebugging: Loading WinPixEventRuntime.dll for PIX profiling (from ../../../Engine/Binaries/ThirdParty/Windows/WinPixEventRuntime/x64).
LogWindows: Failed to load 'VtuneApi.dll' (GetLastError=126)
LogWindows: File 'VtuneApi.dll' does not exist
LogWindows: Failed to load 'VtuneApi32e.dll' (GetLastError=126)
LogWindows: File 'VtuneApi32e.dll' does not exist
LogWindows: Started CrashReportClient (pid=7832)
LogConsoleResponse: Display: Failed to find resolution value strings in scalability ini. Falling back to default.
LogConsoleResponse: Display: Failed to find resolution value strings in scalability ini. Falling back to default.
LogInit: Display: Running engine for game: Platformer_Projects
LogCore: UnrealTraceServer: Trace store launch successful
LogCsvProfiler: Display: Metadata set : platform="Windows"
LogCsvProfiler: Display: Metadata set : config="Development"
LogCsvProfiler: Display: Metadata set : buildversion="++UE5+Release-5.0-CL-20979098"
LogCsvProfiler: Display: Metadata set : engineversion="5.0.3-20979098+++UE5+Release-5.0"
LogCsvProfiler: Display: Metadata set : commandline="" "D:\Unreal Projects\MyProject\Super Mario project\platformer-project\Platformer_Projects\Platformer_Projects.uproject"""
LogCsvProfiler: Display: Metadata set : os="Windows 10 (22H2) [10.0.19045.5487] "
LogCsvProfiler: Display: Metadata set : cpu="GenuineIntel|Intel(R) Core(TM) i7-9700F CPU @ 3.00GHz"
LogCsvProfiler: Display: Metadata set : pgoenabled="0"
LogCsvProfiler: Display: Metadata set : loginid="6294c98e426c78ebac8a84a19d34606c"
LogCsvProfiler: Display: Metadata set : llm="0"
LogPlatformFile: Not using cached read wrapper
LogStats: Stats thread started at 2.537166
LogICUInternationalization: ICU TimeZone Detection - Raw Offset: +1:00, Platform Override: ''
LogInit: Session CrashGUID >====================================================
         Session CrashGUID >   UECC-Windows-92B0E3D64AE064C39EF2D68E7FDE76D2
         Session CrashGUID >====================================================
LogConfig: Display: Loading Android ini files took 0.03 seconds
LogConfig: Display: Loading IOS ini files took 0.03 seconds
LogConfig: Display: Loading LinuxArm64 ini files took 0.04 seconds
LogConfig: Display: Loading Linux ini files took 0.04 seconds
LogConfig: Display: Loading HoloLens ini files took 0.05 seconds
LogConfig: Display: Loading TVOS ini files took 0.02 seconds
LogConfig: Display: Loading VulkanPC ini files took 0.02 seconds
LogConfig: Display: Loading Mac ini files took 0.03 seconds
LogConfig: Display: Loading Unix ini files took 0.02 seconds
LogConfig: Display: Loading Windows ini files took 0.02 seconds
LogPluginManager: Mounting Engine plugin Bridge
LogPluginManager: Mounting Engine plugin FastBuildController
LogPluginManager: Mounting Engine plugin MeshPainting
LogPluginManager: Mounting Engine plugin XGEController
LogPluginManager: Mounting Engine plugin CameraShakePreviewer
LogPluginManager: Mounting Engine plugin GameplayCameras
LogPluginManager: Mounting Engine plugin Paper2D
LogPluginManager: Mounting Engine plugin AnimationModifierLibrary
LogPluginManager: Mounting Engine plugin ControlRig
LogPluginManager: Mounting Engine plugin BlendSpaceMotionAnalysis
LogPluginManager: Mounting Engine plugin ControlRigSpline
LogPluginManager: Mounting Engine plugin IKRig
LogPluginManager: Mounting Engine plugin AISupport
LogPluginManager: Mounting Engine plugin EnvironmentQueryEditor
LogPluginManager: Mounting Engine plugin OodleNetwork
LogPluginManager: Mounting Engine plugin DatasmithContent
LogPluginManager: Mounting Engine plugin VariantManagerContent
LogPluginManager: Mounting Engine plugin AnimationSharing
LogPluginManager: Mounting Engine plugin Niagara
LogPluginManager: Mounting Engine plugin KDevelopSourceCodeAccess
LogPluginManager: Mounting Engine plugin CodeLiteSourceCodeAccess
LogPluginManager: Mounting Engine plugin GitSourceControl
LogPluginManager: Mounting Engine plugin CLionSourceCodeAccess
LogPluginManager: Mounting Engine plugin NullSourceCodeAccess
LogPluginManager: Mounting Engine plugin PerforceSourceControl
LogPluginManager: Mounting Engine plugin PixWinPlugin
LogPluginManager: Mounting Engine plugin PlasticSourceControl
LogPluginManager: Mounting Engine plugin PluginUtils
LogPluginManager: Mounting Engine plugin PropertyAccessNode
LogPluginManager: Mounting Engine plugin SubversionSourceControl
LogPluginManager: Mounting Engine plugin RiderSourceCodeAccess
LogPluginManager: Mounting Engine plugin TextureFormatOodle
LogPluginManager: Mounting Engine plugin UObjectPlugin
LogPluginManager: Mounting Engine plugin TraceDataFilters
LogPluginManager: Mounting Engine plugin VisualStudioSourceCodeAccess
LogPluginManager: Mounting Engine plugin VisualStudioCodeSourceCodeAccess
LogPluginManager: Mounting Engine plugin XCodeSourceCodeAccess
LogPluginManager: Mounting Engine plugin AssetManagerEditor
LogPluginManager: Mounting Engine plugin AlembicImporter
LogPluginManager: Mounting Engine plugin DataValidation
LogPluginManager: Mounting Engine plugin CryptoKeys
LogPluginManager: Mounting Engine plugin CurveEditorTools
LogPluginManager: Mounting Engine plugin EditorDebugTools
LogPluginManager: Mounting Engine plugin GameplayTagsEditor
LogPluginManager: Mounting Engine plugin MacGraphicsSwitching
LogPluginManager: Mounting Engine plugin GeometryMode
LogPluginManager: Mounting Engine plugin EditorScriptingUtilities
LogPluginManager: Mounting Engine plugin FacialAnimation
LogPluginManager: Mounting Engine plugin MaterialAnalyzer
LogPluginManager: Mounting Engine plugin MobileLauncherProfileWizard
LogPluginManager: Mounting Engine plugin SequencerAnimTools
LogPluginManager: Mounting Engine plugin ModelingToolsEditorMode
LogPluginManager: Mounting Engine plugin PluginBrowser
LogPluginManager: Mounting Engine plugin StylusInput
LogPluginManager: Mounting Engine plugin SpeedTreeImporter
LogPluginManager: Mounting Engine plugin WorldPartitionHLODUtilities
LogPluginManager: Mounting Engine plugin LauncherChunkInstaller
LogPluginManager: Mounting Engine plugin TcpMessaging
LogPluginManager: Mounting Engine plugin UdpMessaging
LogPluginManager: Mounting Engine plugin ActorSequence
LogPluginManager: Mounting Engine plugin LevelSequenceEditor
LogPluginManager: Mounting Engine plugin SequencerScripting
LogPluginManager: Mounting Engine plugin MatineeToLevelSequence
LogPluginManager: Mounting Engine plugin TemplateSequence
LogPluginManager: Mounting Engine plugin AndroidMedia
LogPluginManager: Mounting Engine plugin AvfMedia
LogPluginManager: Mounting Engine plugin MediaCompositing
LogPluginManager: Mounting Engine plugin ImgMedia
LogPluginManager: Mounting Engine plugin MediaPlayerEditor
LogPluginManager: Mounting Engine plugin WebMMedia
LogPluginManager: Mounting Engine plugin WmfMedia
LogPluginManager: Mounting Engine plugin BackChannel
LogPluginManager: Mounting Engine plugin AutomationUtils
LogPluginManager: Mounting Engine plugin ChaosCloth
LogPluginManager: Mounting Engine plugin ChaosClothEditor
LogPluginManager: Mounting Engine plugin ChaosEditor
LogPluginManager: Mounting Engine plugin ChaosNiagara
LogPluginManager: Mounting Engine plugin ChaosSolverPlugin
LogPluginManager: Mounting Engine plugin CharacterAI
LogPluginManager: Mounting Engine plugin FullBodyIK
LogPluginManager: Mounting Engine plugin GeometryCollectionPlugin
LogPluginManager: Mounting Engine plugin GeometryFlow
LogPluginManager: Mounting Engine plugin MeshLODToolset
LogPluginManager: Mounting Engine plugin MeshModelingToolsetExp
LogPluginManager: Mounting Engine plugin OpenImageDenoise
LogPluginManager: Mounting Engine plugin ProxyLODPlugin
LogPluginManager: Mounting Engine plugin PlanarCut
LogPluginManager: Mounting Engine plugin PythonScriptPlugin
LogPluginManager: Mounting Engine plugin PlatformCrypto
LogPluginManager: Mounting Engine plugin SkeletalReduction
LogPluginManager: Mounting Engine plugin OnlineBase
LogPluginManager: Mounting Engine plugin OnlineSubsystem
LogPluginManager: Mounting Engine plugin OnlineSubsystemUtils
LogPluginManager: Mounting Engine plugin OnlineSubsystemNull
LogPluginManager: Mounting Engine plugin ActorLayerUtilities
LogPluginManager: Mounting Engine plugin AndroidDeviceProfileSelector
LogPluginManager: Mounting Engine plugin AndroidMoviePlayer
LogPluginManager: Mounting Engine plugin AndroidPermission
LogPluginManager: Mounting Engine plugin AndroidFileServer
LogPluginManager: Mounting Engine plugin ArchVisCharacter
LogPluginManager: Mounting Engine plugin AppleImageUtils
LogPluginManager: Mounting Engine plugin AppleMoviePlayer
LogPluginManager: Mounting Engine plugin AssetTags
LogPluginManager: Mounting Engine plugin AudioCapture
LogPluginManager: Mounting Engine plugin AudioSynesthesia
LogPluginManager: Mounting Engine plugin CableComponent
LogPluginManager: Mounting Engine plugin ChunkDownloader
LogPluginManager: Mounting Engine plugin CustomMeshComponent
LogPluginManager: Mounting Engine plugin ExampleDeviceProfileSelector
LogPluginManager: Mounting Engine plugin GeometryCache
LogPluginManager: Mounting Engine plugin GeometryProcessing
LogPluginManager: Mounting Engine plugin GoogleCloudMessaging
LogPluginManager: Mounting Engine plugin GooglePAD
LogPluginManager: Mounting Engine plugin HairStrands
LogPluginManager: Mounting Engine plugin LinuxDeviceProfileSelector
LogPluginManager: Mounting Engine plugin IOSDeviceProfileSelector
LogPluginManager: Mounting Engine plugin MeshModelingToolset
LogPluginManager: Mounting Engine plugin LocationServicesBPLibrary
LogPluginManager: Mounting Engine plugin MobilePatchingUtils
LogPluginManager: Mounting Engine plugin ProceduralMeshComponent
LogPluginManager: Mounting Engine plugin PropertyAccessEditor
LogPluginManager: Mounting Engine plugin ResonanceAudio
LogPluginManager: Mounting Engine plugin RuntimePhysXCooking
LogPluginManager: Mounting Engine plugin SignificanceManager
LogPluginManager: Mounting Engine plugin SoundFields
LogPluginManager: Mounting Engine plugin Synthesis
LogPluginManager: Mounting Engine plugin WebMMoviePlayer
LogPluginManager: Mounting Engine plugin WindowsDeviceProfileSelector
LogPluginManager: Mounting Engine plugin WindowsMoviePlayer
LogPluginManager: Mounting Engine plugin ContentBrowserAssetDataSource
LogPluginManager: Mounting Engine plugin ContentBrowserClassDataSource
LogPluginManager: Mounting Engine plugin ContentBrowserFileDataSource
LogPluginManager: Mounting Engine plugin Interchange
LogPluginManager: Mounting Engine plugin InterchangeEditor
LogPluginManager: Mounting Engine plugin OnlineSubsystemGooglePlay
LogPluginManager: Mounting Engine plugin OnlineSubsystemIOS
LogPluginManager: Mounting Engine plugin OnlineServices
LogPackageName: Display: FPackageName: Mount point added: '../../Plugins/Bridge/Content/' mounted to '/Bridge/'
LogPackageName: Display: FPackageName: Mount point added: '../../Plugins/2D/Paper2D/Content/' mounted to '/Paper2D/'
LogPackageName: Display: FPackageName: Mount point added: '../../Plugins/Animation/ControlRig/Content/' mounted to '/ControlRig/'
LogPackageName: Display: FPackageName: Mount point added: '../../Plugins/Animation/ControlRigSpline/Content/' mounted to '/ControlRigSpline/'
LogPackageName: Display: FPackageName: Mount point added: '../../Plugins/Animation/IKRig/Content/' mounted to '/IKRig/'
LogPackageName: Display: FPackageName: Mount point added: '../../Plugins/Enterprise/DatasmithContent/Content/' mounted to '/DatasmithContent/'
LogPackageName: Display: FPackageName: Mount point added: '../../Plugins/Developer/AnimationSharing/Content/' mounted to '/AnimationSharing/'
LogPackageName: Display: FPackageName: Mount point added: '../../Plugins/FX/Niagara/Content/' mounted to '/Niagara/'
LogPackageName: Display: FPackageName: Mount point added: '../../Plugins/Editor/GeometryMode/Content/' mounted to '/GeometryMode/'
LogPackageName: Display: FPackageName: Mount point added: '../../Plugins/Editor/ModelingToolsEditorMode/Content/' mounted to '/ModelingToolsEditorMode/'
LogPackageName: Display: FPackageName: Mount point added: '../../Plugins/Editor/SpeedTreeImporter/Content/' mounted to '/SpeedTreeImporter/'
LogPackageName: Display: FPackageName: Mount point added: '../../Plugins/MovieScene/SequencerScripting/Content/' mounted to '/SequencerScripting/'
LogPackageName: Display: FPackageName: Mount point added: '../../Plugins/Media/MediaCompositing/Content/' mounted to '/MediaCompositing/'
LogPackageName: Display: FPackageName: Mount point added: '../../Plugins/Experimental/ChaosClothEditor/Content/' mounted to '/ChaosClothEditor/'
LogPackageName: Display: FPackageName: Mount point added: '../../Plugins/Experimental/ChaosNiagara/Content/' mounted to '/ChaosNiagara/'
LogPackageName: Display: FPackageName: Mount point added: '../../Plugins/Experimental/ChaosSolverPlugin/Content/' mounted to '/ChaosSolverPlugin/'
LogPackageName: Display: FPackageName: Mount point added: '../../Plugins/Experimental/FullBodyIK/Content/' mounted to '/FullBodyIK/'
LogPackageName: Display: FPackageName: Mount point added: '../../Plugins/Experimental/GeometryCollectionPlugin/Content/' mounted to '/GeometryCollectionPlugin/'
LogPackageName: Display: FPackageName: Mount point added: '../../Plugins/Experimental/GeometryFlow/Content/' mounted to '/GeometryFlow/'
LogPackageName: Display: FPackageName: Mount point added: '../../Plugins/Experimental/MeshLODToolset/Content/' mounted to '/MeshLODToolset/'
LogPackageName: Display: FPackageName: Mount point added: '../../Plugins/Experimental/MeshModelingToolsetExp/Content/' mounted to '/MeshModelingToolsetExp/'
LogPackageName: Display: FPackageName: Mount point added: '../../Plugins/Experimental/PythonScriptPlugin/Content/' mounted to '/PythonScriptPlugin/'
LogPackageName: Display: FPackageName: Mount point added: '../../Plugins/Runtime/AudioSynesthesia/Content/' mounted to '/AudioSynesthesia/'
LogPackageName: Display: FPackageName: Mount point added: '../../Plugins/Runtime/GeometryProcessing/Content/' mounted to '/GeometryProcessing/'
LogPackageName: Display: FPackageName: Mount point added: '../../Plugins/Runtime/HairStrands/Content/' mounted to '/HairStrands/'
LogPackageName: Display: FPackageName: Mount point added: '../../Plugins/Runtime/MeshModelingToolset/Content/' mounted to '/MeshModelingToolset/'
LogPackageName: Display: FPackageName: Mount point added: '../../Plugins/Runtime/ResonanceAudio/Content/' mounted to '/ResonanceAudio/'
LogPackageName: Display: FPackageName: Mount point added: '../../Plugins/Runtime/Synthesis/Content/' mounted to '/Synthesis/'
SourceControl: Source control is disabled
SourceControl: Source control is disabled
PixWinPlugin: PIX capture plugin failed to initialize! Check that the process is launched from PIX.
LogInit: Using libcurl 7.55.1-DEV
LogInit:  - built for x86_64-pc-win32
LogInit:  - supports SSL with OpenSSL/1.1.1
LogInit:  - supports HTTP deflate (compression) using libz 1.2.8
LogInit:  - other features:
LogInit:      CURL_VERSION_SSL
LogInit:      CURL_VERSION_LIBZ
LogInit:      CURL_VERSION_IPV6
LogInit:      CURL_VERSION_ASYNCHDNS
LogInit:      CURL_VERSION_LARGEFILE
LogInit:      CURL_VERSION_IDN
LogInit:  CurlRequestOptions (configurable via config and command line):
LogInit:  - bVerifyPeer = true  - Libcurl will verify peer certificate
LogInit:  - bUseHttpProxy = false  - Libcurl will NOT use HTTP proxy
LogInit:  - bDontReuseConnections = false  - Libcurl will reuse connections
LogInit:  - MaxHostConnections = 16  - Libcurl will limit the number of connections to a host
LogInit:  - LocalHostAddr = Default
LogInit:  - BufferSize = 65536
LogInit: WinSock: version 1.1 (2.2), MaxSocks=32767, MaxUdp=65467
LogOnline: OSS: Created online subsystem instance for: NULL
LogOnline: OSS: TryLoadSubsystemAndSetDefault: Loaded subsystem for module [NULL]
LogInit: Build: ++UE5+Release-5.0-CL-20979098
LogInit: Engine Version: 5.0.3-20979098+++UE5+Release-5.0
LogInit: Compatible Engine Version: 5.0.0-19505902+++UE5+Release-5.0
LogInit: Net CL: 19505902
LogInit: OS: Windows 10 (22H2) [10.0.19045.5487] (), CPU: Intel(R) Core(TM) i7-9700F CPU @ 3.00GHz, GPU: NVIDIA GeForce GTX 1080 Ti
LogInit: Compiled (64-bit): Jul  7 2022 02:16:06
LogInit: Compiled with Visual C++: 19.29.30138.00
LogInit: Build Configuration: Development
LogInit: Branch Name: ++UE5+Release-5.0
LogInit: Command Line: 
LogInit: Base Directory: C:/Program Files/Epic Games/UE_5.0/Engine/Binaries/Win64/
LogInit: Allocator: Mimalloc
LogInit: Installed Engine Build: 1
LogDevObjectVersion: Number of dev versions registered: 34
LogDevObjectVersion:   Dev-Blueprints (B0D832E4-1F89-4F0D-ACCF-7EB736FD4AA2): 10
LogDevObjectVersion:   Dev-Build (E1C64328-A22C-4D53-A36C-8E866417BD8C): 0
LogDevObjectVersion:   Dev-Core (375EC13C-06E4-48FB-B500-84F0262A717E): 4
LogDevObjectVersion:   Dev-Editor (E4B068ED-F494-42E9-A231-DA0B2E46BB41): 40
LogDevObjectVersion:   Dev-Framework (CFFC743F-43B0-4480-9391-14DF171D2073): 37
LogDevObjectVersion:   Dev-Mobile (B02B49B5-BB20-44E9-A304-32B752E40360): 3
LogDevObjectVersion:   Dev-Networking (A4E4105C-59A1-49B5-A7C5-40C4547EDFEE): 0
LogDevObjectVersion:   Dev-Online (39C831C9-5AE6-47DC-9A44-9C173E1C8E7C): 0
LogDevObjectVersion:   Dev-Physics (78F01B33-EBEA-4F98-B9B4-84EACCB95AA2): 20
LogDevObjectVersion:   Dev-Platform (6631380F-2D4D-43E0-8009-CF276956A95A): 0
LogDevObjectVersion:   Dev-Rendering (12F88B9F-8875-4AFC-A67C-D90C383ABD29): 45
LogDevObjectVersion:   Dev-Sequencer (7B5AE74C-D270-4C10-A958-57980B212A5A): 13
LogDevObjectVersion:   Dev-VR (D7296918-1DD6-4BDD-9DE2-64A83CC13884): 3
LogDevObjectVersion:   Dev-LoadTimes (C2A15278-BFE7-4AFE-6C17-90FF531DF755): 1
LogDevObjectVersion:   Private-Geometry (6EACA3D4-40EC-4CC1-B786-8BED09428FC5): 3
LogDevObjectVersion:   Dev-AnimPhys (29E575DD-E0A3-4627-9D10-D276232CDCEA): 17
LogDevObjectVersion:   Dev-Anim (AF43A65D-7FD3-4947-9873-3E8ED9C1BB05): 15
LogDevObjectVersion:   Dev-ReflectionCapture (6B266CEC-1EC7-4B8F-A30B-E4D90942FC07): 1
LogDevObjectVersion:   Dev-Automation (0DF73D61-A23F-47EA-B727-89E90C41499A): 1
LogDevObjectVersion:   FortniteMain (601D1886-AC64-4F84-AA16-D3DE0DEAC7D6): 59
LogDevObjectVersion:   FortniteRelease (E7086368-6B23-4C58-8439-1B7016265E91): 3
LogDevObjectVersion:   Dev-Enterprise (9DFFBCD6-494F-0158-E221-12823C92A888): 10
LogDevObjectVersion:   Dev-Niagara (F2AED0AC-9AFE-416F-8664-AA7FFA26D6FC): 1
LogDevObjectVersion:   Dev-Destruction (174F1F0B-B4C6-45A5-B13F-2EE8D0FB917D): 10
LogDevObjectVersion:   Dev-Physics-Ext (35F94A83-E258-406C-A318-09F59610247C): 41
LogDevObjectVersion:   Dev-PhysicsMaterial-Chaos (B68FC16E-8B1B-42E2-B453-215C058844FE): 1
LogDevObjectVersion:   Dev-CineCamera (B2E18506-4273-CFC2-A54E-F4BB758BBA07): 1
LogDevObjectVersion:   Dev-VirtualProduction (64F58936-FD1B-42BA-BA96-7289D5D0FA4E): 1
LogDevObjectVersion:   UE5-Main (697DD581-E64F-41AB-AA4A-51ECBEB7B628): 59
LogDevObjectVersion:   UE5-Release (D89B5E42-24BD-4D46-8412-ACA8DF641779): 36
LogDevObjectVersion:   UE5-PrivateFrosty (59DA5D52-1232-4948-B878-597870B8E98B): 8
LogDevObjectVersion:   UE5-Dev-Cooker (26075A32-730F-4708-88E9-8C32F1599D05): 0
LogDevObjectVersion:   Dev-MediaFramework (6F0ED827-A609-4895-9C91-998D90180EA4): 2
LogDevObjectVersion:   UE5-Dev-LWCRendering (30D58BE3-95EA-4282-A6E3-B159D8EBB06A): 1
LogInit: Presizing for max 25165824 objects, including 0 objects not considered by GC, pre-allocating 0 bytes for permanent pool.
LogInit: Object subsystem initialized
LogConfig: CVar [[con.DebugLateDefault:1]] deferred - dummy variable created
LogConfig: CVar [[con.DebugLateCheat:1]] deferred - dummy variable created
LogConfig: CVar [[r.DetectAndWarnOfBadDrivers:0]] deferred - dummy variable created
LogConfig: CVar [[LogNamedEventFilters:Frame *]] deferred - dummy variable created
LogConfig: CVar [[framepro.ScopeMinTimeMicroseconds:10]] deferred - dummy variable created
LogConfig: CVar [[QualityLevelMapping:high]] deferred - dummy variable created
[2025.03.04-09.29.21:475][  0]LogConfig: Applying CVar settings from Section [/Script/Engine.RendererSettings] File [Engine]
[2025.03.04-09.29.21:475][  0]LogConfig: CVar [[VisualizeCalibrationColorMaterialPath:/Engine/EngineMaterials/PPM_DefaultCalibrationColor.PPM_DefaultCalibrationColor]] deferred - dummy variable created
[2025.03.04-09.29.21:475][  0]LogConfig: CVar [[VisualizeCalibrationGrayscaleMaterialPath:/Engine/EngineMaterials/PPM_DefaultCalibrationGrayscale.PPM_DefaultCalibrationGrayscale]] deferred - dummy variable created
[2025.03.04-09.29.21:475][  0]LogConfig: CVar [[MaxSkinBones:(Default=65536,PerPlatform=(("Mobile", 256)))]] deferred - dummy variable created
[2025.03.04-09.29.21:476][  0]LogConfig: Applying CVar settings from Section [/Script/Engine.RendererOverrideSettings] File [Engine]
[2025.03.04-09.29.21:476][  0]LogConfig: Applying CVar settings from Section [/Script/Engine.StreamingSettings] File [Engine]
[2025.03.04-09.29.21:476][  0]LogConfig: CVar [[s.MaxPackageSummarySize:16384]] deferred - dummy variable created
[2025.03.04-09.29.21:476][  0]LogConfig: CVar [[FixedBootOrder:/Script/Engine/Default__SoundBase]] deferred - dummy variable created
[2025.03.04-09.29.21:476][  0]LogConfig: CVar [[FixedBootOrder:/Script/Engine/Default__MaterialInterface]] deferred - dummy variable created
[2025.03.04-09.29.21:476][  0]LogConfig: CVar [[FixedBootOrder:/Script/Engine/Default__DeviceProfileManager]] deferred - dummy variable created
[2025.03.04-09.29.21:476][  0]LogConfig: Applying CVar settings from Section [/Script/Engine.GarbageCollectionSettings] File [Engine]
[2025.03.04-09.29.21:476][  0]LogConfig: Applying CVar settings from Section [/Script/Engine.NetworkSettings] File [Engine]
[2025.03.04-09.29.21:476][  0]LogConfig: CVar [[NetworkEmulationProfiles:(ProfileName="Average",ToolTip="Simulates average internet conditions")]] deferred - dummy variable created
[2025.03.04-09.29.21:476][  0]LogConfig: CVar [[NetworkEmulationProfiles:(ProfileName="Bad",ToolTip="Simulates laggy internet conditions")]] deferred - dummy variable created
[2025.03.04-09.29.21:476][  0]LogConfig: Applying CVar settings from Section [/Script/UnrealEd.CookerSettings] File [Engine]
[2025.03.04-09.29.21:476][  0]LogConfig: CVar [[DefaultPVRTCQuality:1]] deferred - dummy variable created
[2025.03.04-09.29.21:476][  0]LogConfig: CVar [[DefaultASTCQualityBySpeed:1]] deferred - dummy variable created
[2025.03.04-09.29.21:476][  0]LogConfig: CVar [[DefaultASTCQualityBySize:3]] deferred - dummy variable created
[2025.03.04-09.29.21:476][  0]LogConfig: CVar [[ClassesExcludedOnDedicatedServer:WidgetBlueprint]] deferred - dummy variable created
[2025.03.04-09.29.21:476][  0]LogConfig: CVar [[ClassesExcludedOnDedicatedServer:GroupActor]] deferred - dummy variable created
[2025.03.04-09.29.21:476][  0]LogConfig: CVar [[ClassesExcludedOnDedicatedServer:MetaData]] deferred - dummy variable created
[2025.03.04-09.29.21:476][  0]LogConfig: CVar [[ClassesExcludedOnDedicatedServer:ObjectRedirector]] deferred - dummy variable created
[2025.03.04-09.29.21:476][  0]LogConfig: CVar [[ClassesExcludedOnDedicatedServer:NavMeshRenderingComponent]] deferred - dummy variable created
[2025.03.04-09.29.21:476][  0]LogConfig: CVar [[ClassesExcludedOnDedicatedServer:ReflectionCaptureComponent]] deferred - dummy variable created
[2025.03.04-09.29.21:476][  0]LogConfig: CVar [[ClassesExcludedOnDedicatedServer:TextRenderComponent]] deferred - dummy variable created
[2025.03.04-09.29.21:476][  0]LogConfig: CVar [[ClassesExcludedOnDedicatedServer:Font]] deferred - dummy variable created
[2025.03.04-09.29.21:476][  0]LogConfig: CVar [[ClassesExcludedOnDedicatedServer:InterpCurveEdSetup]] deferred - dummy variable created
[2025.03.04-09.29.21:476][  0]LogConfig: CVar [[ClassesExcludedOnDedicatedServer:MaterialExpression]] deferred - dummy variable created
[2025.03.04-09.29.21:476][  0]LogConfig: CVar [[ClassesExcludedOnDedicatedServer:MatineeActorCameraAnim]] deferred - dummy variable created
[2025.03.04-09.29.21:476][  0]LogConfig: CVar [[ClassesExcludedOnDedicatedServer:NiagaraEmitter]] deferred - dummy variable created
[2025.03.04-09.29.21:476][  0]LogConfig: CVar [[ClassesExcludedOnDedicatedServer:NiagaraScript]] deferred - dummy variable created
[2025.03.04-09.29.21:477][  0]LogConfig: CVar [[ClassesExcludedOnDedicatedServer:ParticleEmitter]] deferred - dummy variable created
[2025.03.04-09.29.21:477][  0]LogConfig: CVar [[ClassesExcludedOnDedicatedServer:ParticleLODLevel]] deferred - dummy variable created
[2025.03.04-09.29.21:477][  0]LogConfig: CVar [[ClassesExcludedOnDedicatedServer:ParticleModule]] deferred - dummy variable created
[2025.03.04-09.29.21:477][  0]LogConfig: CVar [[ClassesExcludedOnDedicatedServer:SubUVAnimation]] deferred - dummy variable created
[2025.03.04-09.29.21:477][  0]LogConfig: CVar [[ClassesExcludedOnDedicatedServer:SoundNode]] deferred - dummy variable created
[2025.03.04-09.29.21:477][  0]LogConfig: CVar [[ClassesExcludedOnDedicatedServer:GameplayEffectUIData]] deferred - dummy variable created
[2025.03.04-09.29.21:477][  0]LogConfig: CVar [[ClassesExcludedOnDedicatedClient:WidgetBlueprint]] deferred - dummy variable created
[2025.03.04-09.29.21:477][  0]LogConfig: CVar [[ClassesExcludedOnDedicatedClient:GroupActor]] deferred - dummy variable created
[2025.03.04-09.29.21:477][  0]LogConfig: CVar [[ClassesExcludedOnDedicatedClient:MetaData]] deferred - dummy variable created
[2025.03.04-09.29.21:477][  0]LogConfig: CVar [[ClassesExcludedOnDedicatedClient:ObjectRedirector]] deferred - dummy variable created
[2025.03.04-09.29.21:477][  0]LogConfig: CVar [[ClassesExcludedOnDedicatedClient:InterpCurveEdSetup]] deferred - dummy variable created
[2025.03.04-09.29.21:477][  0]LogConfig: CVar [[ClassesExcludedOnDedicatedClient:MatineeActorCameraAnim]] deferred - dummy variable created
[2025.03.04-09.29.21:477][  0]LogConfig: CVar [[VersionedIntRValues:r.AllowStaticLighting]] deferred - dummy variable created
[2025.03.04-09.29.21:477][  0]LogConfig: CVar [[VersionedIntRValues:r.GBuffer]] deferred - dummy variable created
[2025.03.04-09.29.21:477][  0]LogConfig: CVar [[VersionedIntRValues:r.VelocityOutputPass]] deferred - dummy variable created
[2025.03.04-09.29.21:477][  0]LogConfig: CVar [[VersionedIntRValues:r.SelectiveBasePassOutputs]] deferred - dummy variable created
[2025.03.04-09.29.21:477][  0]LogConfig: CVar [[VersionedIntRValues:r.DBuffer]] deferred - dummy variable created
[2025.03.04-09.29.21:477][  0]LogConfig: CVar [[VersionedIntRValues:r.Shaders.Symbols]] deferred - dummy variable created
[2025.03.04-09.29.21:477][  0]LogConfig: CVar [[VersionedIntRValues:r.Shaders.GenerateSymbols]] deferred - dummy variable created
[2025.03.04-09.29.21:477][  0]LogConfig: CVar [[VersionedIntRValues:r.Shaders.WriteSymbols]] deferred - dummy variable created
[2025.03.04-09.29.21:477][  0]LogConfig: CVar [[VersionedIntRValues:r.Shaders.AllowUniqueSymbols]] deferred - dummy variable created
[2025.03.04-09.29.21:477][  0]LogConfig: CVar [[VersionedIntRValues:r.Shaders.ExtraData]] deferred - dummy variable created
[2025.03.04-09.29.21:477][  0]LogConfig: CVar [[VersionedIntRValues:r.Shaders.Optimize]] deferred - dummy variable created
[2025.03.04-09.29.21:477][  0]LogConfig: CVar [[VersionedIntRValues:r.CompileShadersForDevelopment]] deferred - dummy variable created
[2025.03.04-09.29.21:477][  0]LogConfig: CVar [[VersionedIntRValues:r.MobileHDR]] deferred - dummy variable created
[2025.03.04-09.29.21:477][  0]LogConfig: CVar [[VersionedIntRValues:r.UsePreExposure]] deferred - dummy variable created
[2025.03.04-09.29.21:484][  0]LogConfig: Applying CVar settings from Section [ViewDistanceQuality@3] File [Scalability]
[2025.03.04-09.29.21:484][  0]LogConfig: Applying CVar settings from Section [AntiAliasingQuality@3] File [Scalability]
[2025.03.04-09.29.21:484][  0]LogConfig: Applying CVar settings from Section [ShadowQuality@3] File [Scalability]
[2025.03.04-09.29.21:484][  0]LogConfig: Applying CVar settings from Section [GlobalIlluminationQuality@3] File [Scalability]
[2025.03.04-09.29.21:484][  0]LogConfig: Applying CVar settings from Section [ReflectionQuality@3] File [Scalability]
[2025.03.04-09.29.21:484][  0]LogConfig: Applying CVar settings from Section [PostProcessQuality@3] File [Scalability]
[2025.03.04-09.29.21:485][  0]LogConfig: Applying CVar settings from Section [TextureQuality@3] File [Scalability]
[2025.03.04-09.29.21:485][  0]LogConfig: Applying CVar settings from Section [EffectsQuality@3] File [Scalability]
[2025.03.04-09.29.21:485][  0]LogConfig: Applying CVar settings from Section [FoliageQuality@3] File [Scalability]
[2025.03.04-09.29.21:485][  0]LogConfig: Applying CVar settings from Section [ShadingQuality@3] File [Scalability]
[2025.03.04-09.29.21:485][  0]LogConfig: CVar [[r.HairStrands.Interpolation.UseSingleGuide:0]] deferred - dummy variable created
[2025.03.04-09.29.21:535][  0]LogD3D12RHI: Aftermath initialized
[2025.03.04-09.29.21:535][  0]LogD3D12RHI: Loading WinPixEventRuntime.dll for PIX profiling (from ../../../Engine/Binaries/ThirdParty/Windows/WinPixEventRuntime/x64).
[2025.03.04-09.29.21:811][  0]LogD3D12RHI: Found D3D12 adapter 0: NVIDIA GeForce GTX 1080 Ti (Max supported Feature Level 12_1, shader model 6.6)
[2025.03.04-09.29.21:811][  0]LogD3D12RHI: Adapter has 11120MB of dedicated video memory, 0MB of dedicated system memory, and 8146MB of shared system memory, 1 output[s]
[2025.03.04-09.29.21:819][  0]LogD3D12RHI: Found D3D12 adapter 1: Microsoft Basic Render Driver (Max supported Feature Level 12_1, shader model 6.2)
[2025.03.04-09.29.21:819][  0]LogD3D12RHI: Adapter has 0MB of dedicated video memory, 0MB of dedicated system memory, and 8146MB of shared system memory, 0 output[s]
[2025.03.04-09.29.21:821][  0]LogD3D12RHI: Chosen D3D12 Adapter Id = 0
[2025.03.04-09.29.21:821][  0]LogInit: Selected Device Profile: [WindowsEditor]
[2025.03.04-09.29.21:821][  0]LogDeviceProfileManager: Applying CVar settings loaded from the selected device profile: [WindowsEditor]
[2025.03.04-09.29.21:823][  0]LogHAL: Display: Platform has ~ 16 GB [17085239296 / 17179869184 / 16], which maps to Larger [LargestMinGB=32, LargerMinGB=12, DefaultMinGB=8, SmallerMinGB=6, SmallestMinGB=0)
[2025.03.04-09.29.21:824][  0]LogDeviceProfileManager: Going up to parent DeviceProfile [Windows]
[2025.03.04-09.29.21:824][  0]LogDeviceProfileManager: Going up to parent DeviceProfile []
[2025.03.04-09.29.21:824][  0]LogConfig: Applying CVar settings from Section [Startup] File [../../../Engine/Config/ConsoleVariables.ini]
[2025.03.04-09.29.21:831][  0]LogConfig: Applying CVar settings from Section [ConsoleVariables] File [Engine]
[2025.03.04-09.29.21:831][  0]LogConfig: Applying CVar settings from Section [ConsoleVariables] File [D:/Unreal Projects/MyProject/Super Mario project/platformer-project/Platformer_Projects/Saved/Config/WindowsEditor/Editor.ini]
[2025.03.04-09.29.21:832][  0]LogInit: Computer: ANDREW-PC061200
[2025.03.04-09.29.21:832][  0]LogInit: User: Utente
[2025.03.04-09.29.21:832][  0]LogInit: CPU Page size=4096, Cores=8
[2025.03.04-09.29.21:832][  0]LogInit: High frequency timer resolution =10.000000 MHz
[2025.03.04-09.29.21:832][  0]LogMemory: Memory total: Physical=15.9GB (16GB approx)
[2025.03.04-09.29.21:832][  0]LogMemory: Platform Memory Stats for WindowsEditor
[2025.03.04-09.29.21:832][  0]LogMemory: Process Physical Memory: 266.32 MB used, 278.34 MB peak
[2025.03.04-09.29.21:832][  0]LogMemory: Process Virtual Memory: 215.90 MB used, 220.28 MB peak
[2025.03.04-09.29.21:832][  0]LogMemory: Physical Memory: 7081.96 MB used,  9211.79 MB free, 16293.75 MB total
[2025.03.04-09.29.21:832][  0]LogMemory: Virtual Memory: 9375.05 MB used,  9350.70 MB free, 18725.75 MB total
[2025.03.04-09.29.21:832][  0]LogCsvProfiler: Display: Metadata set : extradevelopmentmemorymb="0"
[2025.03.04-09.29.21:838][  0]LogWindows: WindowsPlatformFeatures enabled
[2025.03.04-09.29.21:902][  0]LogInit: Physics initialised using underlying interface: Chaos
[2025.03.04-09.29.21:906][  0]LogInit: Using OS detected language (en-US).
[2025.03.04-09.29.21:906][  0]LogInit: Using OS detected locale (en-US).
[2025.03.04-09.29.21:926][  0]LogTextLocalizationManager: No specific localization for 'en-US' exists, so 'en' will be used for the language.
[2025.03.04-09.29.22:171][  0]LogInit: Setting process to per monitor DPI aware
[2025.03.04-09.29.22:202][  0]LogWindowsTextInputMethodSystem: Available input methods:
[2025.03.04-09.29.22:202][  0]LogWindowsTextInputMethodSystem:   - English (United States) - (Keyboard).
[2025.03.04-09.29.22:202][  0]LogWindowsTextInputMethodSystem:   - Italian (Italy) - (Keyboard).
[2025.03.04-09.29.22:202][  0]LogWindowsTextInputMethodSystem:   - English (United States) - Touch Input Correction (TSF IME).
[2025.03.04-09.29.22:202][  0]LogWindowsTextInputMethodSystem: Activated input method: Italian (Italy) - (Keyboard).
[2025.03.04-09.29.22:328][  0]LogSlate: New Slate User Created.  User Index 0, Is Virtual User: 0
[2025.03.04-09.29.22:328][  0]LogSlate: Slate User Registered.  User Index 0, Is Virtual User: 0
[2025.03.04-09.29.25:423][  0]LogD3D12RHI: InitD3DDevice: -D3DDebug = off -D3D12GPUValidation = off
[2025.03.04-09.29.25:429][  0]LogD3D12RHI: [Aftermath] Aftermath crash dumping enabled
[2025.03.04-09.29.25:429][  0]LogD3D12RHI: Emitting draw events for PIX profiling.
[2025.03.04-09.29.25:530][  0]LogD3D12RHI: [Aftermath] Aftermath enabled and primed
[2025.03.04-09.29.25:531][  0]LogD3D12RHI: [Aftermath] Aftermath resource tracking enabled
[2025.03.04-09.29.25:531][  0]LogD3D12RHI: ID3D12Device1 is supported.
[2025.03.04-09.29.25:531][  0]LogD3D12RHI: ID3D12Device2 is supported.
[2025.03.04-09.29.25:531][  0]LogD3D12RHI: ID3D12Device3 is supported.
[2025.03.04-09.29.25:531][  0]LogD3D12RHI: ID3D12Device4 is supported.
[2025.03.04-09.29.25:531][  0]LogD3D12RHI: ID3D12Device5 is supported.
[2025.03.04-09.29.25:531][  0]LogD3D12RHI: ID3D12Device6 is supported.
[2025.03.04-09.29.25:531][  0]LogD3D12RHI: ID3D12Device7 is supported.
[2025.03.04-09.29.25:531][  0]LogD3D12RHI: D3D12 ray tracing tier 1.0 is supported.
[2025.03.04-09.29.25:531][  0]LogD3D12RHI: AtomicInt64OnTypedResource is supported
[2025.03.04-09.29.25:531][  0]LogD3D12RHI: AtomicInt64OnGroupShared is supported
[2025.03.04-09.29.25:531][  0]LogD3D12RHI: AtomicInt64OnDescriptorHeapResource is supported
[2025.03.04-09.29.25:531][  0]LogD3D12RHI: Shader Model 6.6 atomic64 is supported
[2025.03.04-09.29.25:575][  0]LogD3D12RHI: [GPUBreadCrumb] Successfully setup breadcrumb resource for 3D Queue 0
[2025.03.04-09.29.25:581][  0]LogD3D12RHI: [GPUBreadCrumb] Successfully setup breadcrumb resource for Copy Queue 0
[2025.03.04-09.29.25:588][  0]LogD3D12RHI: [GPUBreadCrumb] Successfully setup breadcrumb resource for Compute Queue 0
[2025.03.04-09.29.25:611][  0]LogD3D12RHI: Display: Not using pipeline state disk cache per r.D3D12.PSO.DiskCache=0
[2025.03.04-09.29.25:611][  0]LogD3D12RHI: Display: Not using driver-optimized pipeline state disk cache per r.D3D12.PSO.DriverOptimizedDiskCache=0
[2025.03.04-09.29.25:657][  0]LogD3D12RHI: Warning: Ray tracing is disabled for NVIDIA cards with the Pascal architecture.
[2025.03.04-09.29.25:657][  0]LogD3D12RHI:     GPU DeviceId: 0x1b06 (for the marketing name, search the web for "GPU Device Id")
[2025.03.04-09.29.25:657][  0]LogWindows: Attached monitors:
[2025.03.04-09.29.25:658][  0]LogWindows:     resolution: 1920x1080, work area: (0, 0) -> (1920, 1040), device: '\\.\DISPLAY1' [PRIMARY]
[2025.03.04-09.29.25:658][  0]LogWindows: Found 1 attached monitors.
[2025.03.04-09.29.25:658][  0]LogWindows: EnumDisplayDevices:
[2025.03.04-09.29.25:658][  0]LogWindows:    0. 'NVIDIA GeForce GTX 1080 Ti' (P:1 D:1), name: '\\.\DISPLAY1'
[2025.03.04-09.29.25:658][  0]LogWindows:    1. 'NVIDIA GeForce GTX 1080 Ti' (P:0 D:0), name: '\\.\DISPLAY2'
[2025.03.04-09.29.25:658][  0]LogWindows:    2. 'NVIDIA GeForce GTX 1080 Ti' (P:0 D:0), name: '\\.\DISPLAY3'
[2025.03.04-09.29.25:659][  0]LogWindows:    3. 'NVIDIA GeForce GTX 1080 Ti' (P:0 D:0), name: '\\.\DISPLAY4'
[2025.03.04-09.29.25:659][  0]LogWindows: DebugString: FoundDriverCount:4 
[2025.03.04-09.29.25:659][  0]LogD3D12RHI:     Adapter Name: NVIDIA GeForce GTX 1080 Ti
[2025.03.04-09.29.25:659][  0]LogD3D12RHI:   Driver Version: 536.23 (internal:31.0.15.3623, unified:536.23)
[2025.03.04-09.29.25:659][  0]LogD3D12RHI:      Driver Date: 6-8-2023
[2025.03.04-09.29.25:659][  0]LogRHI: Texture pool is 6521 MB (70% of 9316 MB)
[2025.03.04-09.29.25:659][  0]LogD3D12RHI: Async texture creation enabled
[2025.03.04-09.29.25:659][  0]LogD3D12RHI: RHI has support for 64 bit atomics
[2025.03.04-09.29.25:716][  0]LogRHI: GeForceNow SDK initialized: 0
[2025.03.04-09.29.25:734][  0]LogTurnkeySupport: Running Turnkey SDK detection: ' -ScriptsForProject="D:/Unreal Projects/MyProject/Super Mario project/platformer-project/Platformer_Projects/Platformer_Projects.uproject" Turnkey -utf8output -WaitForUATMutex -command=VerifySdk -ReportFilename="D:/Unreal Projects/MyProject/Super Mario project/platformer-project/Platformer_Projects/Intermediate/TurnkeyReport_0.log" -log="D:/Unreal Projects/MyProject/Super Mario project/platformer-project/Platformer_Projects/Intermediate/TurnkeyLog_0.log" -project="D:/Unreal Projects/MyProject/Super Mario project/platformer-project/Platformer_Projects/Platformer_Projects.uproject"  -platform=all'
[2025.03.04-09.29.25:735][  0]LogMonitoredProcess: Running Serialized UAT: [ cmd.exe /c ""C:/Program Files/Epic Games/UE_5.0/Engine/Build/BatchFiles/RunUAT.bat"  -ScriptsForProject="D:/Unreal Projects/MyProject/Super Mario project/platformer-project/Platformer_Projects/Platformer_Projects.uproject" Turnkey -utf8output -WaitForUATMutex -command=VerifySdk -ReportFilename="D:/Unreal Projects/MyProject/Super Mario project/platformer-project/Platformer_Projects/Intermediate/TurnkeyReport_0.log" -log="D:/Unreal Projects/MyProject/Super Mario project/platformer-project/Platformer_Projects/Intermediate/TurnkeyLog_0.log" -project="D:/Unreal Projects/MyProject/Super Mario project/platformer-project/Platformer_Projects/Platformer_Projects.uproject"  -platform=all" ]
[2025.03.04-09.29.25:769][  0]LogTextureFormatETC2: Display: ETC2 Texture loading DLL: TextureConverter.dll
[2025.03.04-09.29.25:797][  0]LogTextureFormatOodle: Display: Oodle Texture TFO init; latest sdk version = 2.9.5
[2025.03.04-09.29.25:797][  0]LogTextureFormatOodle: Display: Oodle Texture loading DLL: oo2tex_win64_2.9.5.dll
[2025.03.04-09.29.25:812][  0]LogTargetPlatformManager: Display: Loaded TargetPlatform 'Android'
[2025.03.04-09.29.25:812][  0]LogTargetPlatformManager: Display: Loaded TargetPlatform 'Android_ASTC'
[2025.03.04-09.29.25:812][  0]LogTargetPlatformManager: Display: Loaded TargetPlatform 'Android_DXT'
[2025.03.04-09.29.25:812][  0]LogTargetPlatformManager: Display: Loaded TargetPlatform 'Android_ETC2'
[2025.03.04-09.29.25:812][  0]LogTargetPlatformManager: Display: Loaded TargetPlatform 'AndroidClient'
[2025.03.04-09.29.25:812][  0]LogTargetPlatformManager: Display: Loaded TargetPlatform 'Android_ASTCClient'
[2025.03.04-09.29.25:812][  0]LogTargetPlatformManager: Display: Loaded TargetPlatform 'Android_DXTClient'
[2025.03.04-09.29.25:812][  0]LogTargetPlatformManager: Display: Loaded TargetPlatform 'Android_ETC2Client'
[2025.03.04-09.29.25:812][  0]LogTargetPlatformManager: Display: Loaded TargetPlatform 'Android_Multi'
[2025.03.04-09.29.25:812][  0]LogTargetPlatformManager: Display: Loaded TargetPlatform 'Android_MultiClient'
[2025.03.04-09.29.25:832][  0]LogTargetPlatformManager: Display: Loaded TargetPlatform 'HoloLens'
[2025.03.04-09.29.25:832][  0]LogTargetPlatformManager: Display: Loaded TargetPlatform 'HoloLensClient'
[2025.03.04-09.29.25:838][  0]LogTargetPlatformManager: Display: Loaded TargetPlatform 'IOS'
[2025.03.04-09.29.25:838][  0]LogTargetPlatformManager: Display: Loaded TargetPlatform 'IOSClient'
[2025.03.04-09.29.25:844][  0]LogTargetPlatformManager: Display: Loaded TargetPlatform 'Linux'
[2025.03.04-09.29.25:844][  0]LogTargetPlatformManager: Display: Loaded TargetPlatform 'LinuxEditor'
[2025.03.04-09.29.25:844][  0]LogTargetPlatformManager: Display: Loaded TargetPlatform 'LinuxServer'
[2025.03.04-09.29.25:844][  0]LogTargetPlatformManager: Display: Loaded TargetPlatform 'LinuxClient'
[2025.03.04-09.29.25:849][  0]LogTargetPlatformManager: Display: Loaded TargetPlatform 'LinuxArm64'
[2025.03.04-09.29.25:849][  0]LogTargetPlatformManager: Display: Loaded TargetPlatform 'LinuxArm64Server'
[2025.03.04-09.29.25:849][  0]LogTargetPlatformManager: Display: Loaded TargetPlatform 'LinuxArm64Client'
[2025.03.04-09.29.25:852][  0]LogTargetPlatformManager: Display: Loaded TargetPlatform 'TVOS'
[2025.03.04-09.29.25:852][  0]LogTargetPlatformManager: Display: Loaded TargetPlatform 'TVOSClient'
[2025.03.04-09.29.25:876][  0]LogTargetPlatformManager: Display: Loaded TargetPlatform 'Windows'
[2025.03.04-09.29.25:876][  0]LogTargetPlatformManager: Display: Loaded TargetPlatform 'WindowsEditor'
[2025.03.04-09.29.25:876][  0]LogTargetPlatformManager: Display: Loaded TargetPlatform 'WindowsServer'
[2025.03.04-09.29.25:876][  0]LogTargetPlatformManager: Display: Loaded TargetPlatform 'WindowsClient'
[2025.03.04-09.29.25:876][  0]LogTargetPlatformManager: Display: Building Assets For WindowsEditor
[2025.03.04-09.29.25:991][  0]LogAudioDebug: Display: Lib vorbis DLL was dynamically loaded.
[2025.03.04-09.29.25:995][  0]LogTargetPlatformManager: Unable to find audio format BINKA from hinted modules, loading all potential format modules to find it
[2025.03.04-09.29.25:995][  0]LogTargetPlatformManager: Loaded format module AudioFormatADPCM
[2025.03.04-09.29.25:995][  0]LogTargetPlatformManager:   ADPCM
[2025.03.04-09.29.25:995][  0]LogTargetPlatformManager:   PCM
[2025.03.04-09.29.26:000][  0]LogTargetPlatformManager: Loaded format module AudioFormatBink
[2025.03.04-09.29.26:000][  0]LogTargetPlatformManager:   BINKA
[2025.03.04-09.29.26:000][  0]LogTargetPlatformManager: Loaded format module AudioFormatOgg
[2025.03.04-09.29.26:000][  0]LogTargetPlatformManager:   OGG
[2025.03.04-09.29.26:000][  0]LogTargetPlatformManager: Loaded format module AudioFormatOpus
[2025.03.04-09.29.26:000][  0]LogTargetPlatformManager:   OPUS
[2025.03.04-09.29.26:253][  0]LogTargetPlatformManager: Unable to find shader format SF_METAL from hinted modules, loading all potential format modules to find it
[2025.03.04-09.29.26:263][  0]LogTargetPlatformManager: Loaded format module MetalShaderFormat
[2025.03.04-09.29.26:263][  0]LogTargetPlatformManager:   SF_METAL
[2025.03.04-09.29.26:263][  0]LogTargetPlatformManager:   SF_METAL_MRT
[2025.03.04-09.29.26:263][  0]LogTargetPlatformManager:   SF_METAL_TVOS
[2025.03.04-09.29.26:263][  0]LogTargetPlatformManager:   SF_METAL_MRT_TVOS
[2025.03.04-09.29.26:263][  0]LogTargetPlatformManager:   SF_METAL_SM5
[2025.03.04-09.29.26:263][  0]LogTargetPlatformManager:   SF_METAL_MACES3_1
[2025.03.04-09.29.26:263][  0]LogTargetPlatformManager:   SF_METAL_MRT_MAC
[2025.03.04-09.29.26:263][  0]LogTargetPlatformManager: Loaded format module ShaderFormatD3D
[2025.03.04-09.29.26:263][  0]LogTargetPlatformManager:   PCD3D_SM6
[2025.03.04-09.29.26:263][  0]LogTargetPlatformManager:   PCD3D_SM5
[2025.03.04-09.29.26:263][  0]LogTargetPlatformManager:   PCD3D_ES31
[2025.03.04-09.29.26:263][  0]LogTargetPlatformManager:   D3D_ES3_1_HOLOLENS
[2025.03.04-09.29.26:263][  0]LogTargetPlatformManager: Loaded format module ShaderFormatOpenGL
[2025.03.04-09.29.26:263][  0]LogTargetPlatformManager:   GLSL_150_ES31
[2025.03.04-09.29.26:263][  0]LogTargetPlatformManager:   GLSL_ES3_1_ANDROID
[2025.03.04-09.29.26:273][  0]LogTargetPlatformManager: Loaded format module ShaderFormatVectorVM
[2025.03.04-09.29.26:274][  0]LogTargetPlatformManager:   VVM_1_0
[2025.03.04-09.29.26:274][  0]LogTargetPlatformManager: Loaded format module VulkanShaderFormat
[2025.03.04-09.29.26:274][  0]LogTargetPlatformManager:   SF_VULKAN_SM5
[2025.03.04-09.29.26:274][  0]LogTargetPlatformManager:   SF_VULKAN_ES31_ANDROID
[2025.03.04-09.29.26:274][  0]LogTargetPlatformManager:   SF_VULKAN_ES31
[2025.03.04-09.29.26:274][  0]LogTargetPlatformManager:   SF_VULKAN_SM5_ANDROID
[2025.03.04-09.29.26:274][  0]LogRendererCore: Ray tracing is disabled. Reason: r.RayTracing=0.
[2025.03.04-09.29.26:278][  0]LogShaderCompilers: Display: Compiling shader autogen file: D:/Unreal Projects/MyProject/Super Mario project/platformer-project/Platformer_Projects/Intermediate/ShaderAutogen/PCD3D_SM5/AutogenShaderHeaders.ush
[2025.03.04-09.29.26:303][  0]LogShaderCompilers: Display: Autogen file is unchanged, skipping write.
[2025.03.04-09.29.26:303][  0]LogShaderCompilers: Display: Compiling shader autogen file: D:/Unreal Projects/MyProject/Super Mario project/platformer-project/Platformer_Projects/Intermediate/ShaderAutogen/PCD3D_ES31/AutogenShaderHeaders.ush
[2025.03.04-09.29.26:314][  0]LogShaderCompilers: Display: Autogen file is unchanged, skipping write.
[2025.03.04-09.29.26:321][  0]LogDerivedDataCache: FDerivedDataBackendGraph:  Pak pak cache file D:/Unreal Projects/MyProject/Super Mario project/platformer-project/Platformer_Projects/DerivedDataCache/DDC.ddp not found, will not use a pak cache.
[2025.03.04-09.29.26:322][  0]LogDerivedDataCache: Unable to find inner node Pak for hierarchy Hierarchy.
[2025.03.04-09.29.26:322][  0]LogDerivedDataCache: FDerivedDataBackendGraph:  CompressedPak pak cache file D:/Unreal Projects/MyProject/Super Mario project/platformer-project/Platformer_Projects/DerivedDataCache/Compressed.ddp not found, will not use a pak cache.
[2025.03.04-09.29.26:322][  0]LogDerivedDataCache: Unable to find inner node CompressedPak for hierarchy Hierarchy.
[2025.03.04-09.29.26:355][  0]LogDerivedDataCache: Display: ../../../Engine/DerivedDataCache/Compressed.ddp: Opened pak cache for reading. (1230 MiB)
[2025.03.04-09.29.26:356][  0]LogDerivedDataCache: FDerivedDataBackendGraph:  EnterprisePak pak cache file ../../../Enterprise/DerivedDataCache/Compressed.ddp not found, will not use a pak cache.
[2025.03.04-09.29.26:356][  0]LogDerivedDataCache: Unable to find inner node EnterprisePak for hierarchy Hierarchy.
[2025.03.04-09.29.26:422][  0]LogDerivedDataCache: Speed tests for C:/Users/Utente/AppData/Local/UnrealEngine/Common/DerivedDataCache took 0.06 seconds
[2025.03.04-09.29.26:422][  0]LogDerivedDataCache: Display: Performance to C:/Users/Utente/AppData/Local/UnrealEngine/Common/DerivedDataCache: Latency=0.21ms. RandomReadSpeed=16.21MBs, RandomWriteSpeed=240.93MBs. Assigned SpeedClass 'Local'
[2025.03.04-09.29.26:430][  0]LogDerivedDataCache: Using Local data cache path C:/Users/Utente/AppData/Local/UnrealEngine/Common/DerivedDataCache: Writable
[2025.03.04-09.29.26:430][  0]LogDerivedDataCache: Shared data cache path not found in *engine.ini, will not use an Shared cache.
[2025.03.04-09.29.26:430][  0]LogDerivedDataCache: Unable to find inner node Shared for hierarchy Hierarchy.
[2025.03.04-09.29.26:435][  0]LogVirtualization: VirtualizationSystem name found in ini file: None
[2025.03.04-09.29.26:435][  0]LogVirtualization: FNullVirtualizationSystem mounted, virtualization will be disabled
[2025.03.04-09.29.26:448][  0]LogShaderCompilers: Guid format shader working directory is -41 characters bigger than the processId version (D:/Unreal Projects/MyProject/Super Mario project/platformer-project/Platformer_Projects/Intermediate/Shaders/WorkingDirectory/10848/).
[2025.03.04-09.29.26:448][  0]LogShaderCompilers: Cleaned the shader compiler working directory 'C:/Users/Utente/AppData/Local/Temp/UnrealShaderWorkingDir/E1E314204452C4BA4633BD9AC33A1ACF/'.
[2025.03.04-09.29.26:449][  0]LogXGEController: Cannot use XGE Controller as Incredibuild is not installed on this machine.
[2025.03.04-09.29.26:449][  0]LogShaderCompilers: Display: Using Local Shader Compiler with 5 workers.
[2025.03.04-09.29.34:721][  0]LogTurnkeySupport: Completed SDK detection: ExitCode = 0
[2025.03.04-09.29.34:721][  0]LogSlate: Using FreeType 2.10.0
[2025.03.04-09.29.34:744][  0]LogSlate: SlateFontServices - WITH_FREETYPE: 1, WITH_HARFBUZZ: 1
[2025.03.04-09.29.34:819][  0]LogAssetRegistry: FAssetRegistry took 0.0232 seconds to start up
[2025.03.04-09.29.34:826][  0]LogEditorDomain: Display: EditorDomain is Disabled
[2025.03.04-09.29.35:156][  0]LogSerialization: UsePackageTrailer: 'false'
[2025.03.04-09.29.35:173][  0]LogTexture: Display: Texture Encode Speed: FinalIfAvailable (editor).
[2025.03.04-09.29.35:406][  0]LogInit: Selected Device Profile: [WindowsEditor]
[2025.03.04-09.29.35:407][  0]LogDeviceProfileManager: Active device profile: [0000052B3C405940][0000052B307A5000 50] WindowsEditor
[2025.03.04-09.29.35:407][  0]LogDeviceProfileManager: Profiles: [0000052B3C405400][0000052B307AA000 50] Windows, [0000052B3C405940][0000052B307A5000 50] WindowsEditor, [0000052B3C403D40][0000052B307A2800 50] WindowsServer, [0000052B3C400FC0][0000052B306AA000 50] WindowsClient, [0000052B3C401500][0000052B307A7800 50] IOS, [0000052B3C405080][0000052B3C5B0000 50] iPadAir2, [0000052B3C404EC0][0000052B3C5B7800 50] IPadPro, [0000052B3C406040][0000052B3C5B5000 50] iPadAir3, [0000052B3C4024C0][0000052B3C5BA000 50] iPadAir4, [0000052B3C404D00][0000052B3C5BC800 50] iPadMini4, [0000052B3C401C00][0000052B21725000 50] iPadMini5, [0000052B3C404B40][0000052B3C5E0000 50] iPadMini6, [0000052B3C408880][0000052B3C5EA000 50] iPhone6S, [0000052B3C408C00][0000052B3C5E7800 50] iPhone7, [0000052B3C408500][0000052B3C5E5000 50] iPodTouch7, [0000052B3C402D80][0000052B3C5EC800 50] iPhone6SPlus, [0000052B3C400000][0000052B3C5B2800 50] iPhone7Plus, [0000052B3C405CC0][0000052B3C670000 50] iPhoneSE, [0000052B3C405240][0000052B3C675000 50] iPhone8, [0000052B3C4040C0][0000052B3C677800 50] iPhone8Plus, [0000052B3C4016C0][0000052B3C67A000 50] iPhoneX, [0000052B3C402840][0000052B3C67C800 50] iPhoneXS, [0000052B3C403F00][0000052B3C5E2800 50] iPhoneXSMax, [0000052B3C408180][0000052B3C5F0000 50] iPhoneXR, [0000052B3C406740][0000052B3C5F5000 50] iPhone11, [0000052B3C407FC0][0000052B3C5F7800 50] iPhone11Pro, [0000052B3C402300][0000052B3C5FA000 50] iPhone11ProMax, [0000052B3C407E00][0000052B3C5FC800 50] iPhoneSE2, [0000052B3C404280][0000052B3C672800 50] iPhone12Mini, [0000052B3C401340][0000052B3C600000 50] iPhone12, [0000052B3C405780][0000052B3C605000 50] iPhone12Pro, [0000052B3C401880][0000052B3C607800 50] iPhone12ProMax, [0000052B3C401A40][0000052B3C60A000 50] iPhone13Mini, [0000052B3C407380][0000052B3C60C800 50] iPhone13, [0000052B3C400540][0000052B3C5F2800 50] iPhone13Pro, [0000052B3C406900][0000052B3C630000 50] iPhone13ProMax, [0000052B3C407C40][0000052B3C635000 50] iPadPro105, [0000052B3C405E80][0000052B3C637800 50] iPadPro129, [0000052B3C408A40][0000052B3C63A000 50] iPadPro97, [0000052B3C403100][0000052B3C63C800 50] iPadPro2_129, [0000052B3C4078C0][0000052B3C602800 50] iPad5, [0000052B3C403480][0000052B3C640000 50] iPad6, [0000052B3C405B00][0000052B3C645000 50] iPad7, [0000052B3C4086C0][0000052B3C647800 50] iPad8, [0000052B3C404600][0000052B3C64A000 50] iPad9, [0000052B3C4063C0][0000052B3C64C800 50] iPadPro11, [0000052B3C406AC0][0000052B3C632800 50] iPadPro2_11, [0000052B3C403B80][0000052B3C650000 50] iPadPro3_11, [0000052B3C4008C0][0000052B3C655000 50] iPadPro3_129, [0000052B3C400700][0000052B3C657800 50] iPadPro4_129, [0000052B3C408340][0000052B3C65A000 50] iPadPro5_129, [0000052B3C402A00][0000052B3C65C800 50] AppleTV, [0000052B3C402680][0000052B3C642800 50] AppleTV4K, [0000052B3C406C80][0000052B3C690000 50] TVOS, [0000052B3C40AB80][0000052B3C697800 50] Mac, [0000052B3C40AF00][0000052B3C695000 50] MacEditor, [0000052B3C40A9C0][0000052B3C69A000 50] MacClient, [0000052B3C406200][0000052B3C69C800 50] MacServer, [0000052B3C40B0C0][0000052B3C6B0000 50] Linux, [0000052B3C402140][0000052B3C6B2800 50] LinuxEditor, [0000052B3C409140][0000052B3C6B7800 50] LinuxArm64Editor, [0000052B3C403800][0000052B3C6BA000 50] LinuxArm64, [0000052B3C40A640][0000052B3C6BC800 50] LinuxClient, [0000052B3C40A800][0000052B3C652800 50] LinuxArm64Client, [0000052B3C40BB40][0000052B3C6B5000 50] LinuxServer, [0000052B3C40B440][0000052B3C6A0000 50] LinuxArm64Server, [0000052B3C4094C0][0000052B3C6A5000 50] Android, [0000052B3C409300][0000052B3C6A7800 50] Android_Preview_OpenGL, [0000052B3C40B980][0000052B3C6AA000 50] Android_Preview_Vulkan, [0000052B3C40A480][0000052B3C6AC800 50] Android_Low, [0000052B3C406E40][0000052B3C692800 50] Android_Mid, [0000052B3C408DC0][0000052B3C6C0000 50] Android_High, [0000052B3C409840][0000052B3C6C5000 50] Android_Default, [0000052B3C40B280][0000052B3C6C7800 50] Android_Adreno4xx, [0000052B3C402F40][0000052B3C6CA000 50] Android_Adreno5xx_Low, [0000052B3C409680][0000052B3C6CC800 50] Android_Adreno5xx, [0000052B3C401180][0000052B3C6A2800 50] Android_Adreno6xx, [0000052B3C407700][0000052B3C6D0000 50] Android_Adreno6xx_Vulkan, [0000052B3C401F80][0000052B3C6D5000 50] Android_Adreno7xx, [0000052B3C406580][0000052B3C6D7800 50] Android_Adreno7xx_Vulkan, [0000052B3C40B600][0000052B3C6DA000 50] Android_Mali_T6xx, [0000052B3C409BC0][0000052B3C6DC800 50] Android_Mali_T7xx, [0000052B3C409D80][0000052B3C6C2800 50] Android_Mali_T8xx, [0000052B3C407540][0000052B3C6E0000 50] Android_Mali_G71, [0000052B3C4032C0][0000052B3C6E5000 50] Android_Mali_G72, [0000052B3C407000][0000052B3C6E7800 50] Android_Mali_G72_Vulkan, [0000052B3C409A00][0000052B3C6EA000 50] Android_Mali_G76, [0000052B3C40A2C0][0000052B3C6EC800 50] Android_Mali_G76_Vulkan, [0000052B3C40C240][0000052B3C6D2800 50] Android_Mali_G77, [0000052B3C40C400][0000052B3C6F0000 50] Android_Mali_G77_Vulkan, [0000052B3C40C5C0][0000052B3C6F5000 50] Android_Mali_G78, [0000052B3C4039C0][0000052B3C6F7800 50] Android_Mali_G78_Vulkan, [0000052B3C4047C0][0000052B3C6FA000 50] Android_Mali_G710, [0000052B3C404440][0000052B3C6FC800 50] Android_Mali_G710_Vulkan, [0000052B3C401DC0][0000052B3C6E2800 50] Android_Xclipse_920, [0000052B3C40CB00][0000052B3C700000 50] Android_Xclipse_920_Vulkan, [0000052B3C40B7C0][0000052B3C705000 50] Android_Vulkan_SM5, [0000052B3C40D200][0000052B3C707800 50] Android_PowerVR_G6xxx, [0000052B3C40D3C0][0000052B3C70A000 50] Android_PowerVR_GT7xxx, [0000052B3C40D580][0000052B3C70C800 50] Android_PowerVR_GE8xxx, [0000052B3C40D900][0000052B3C6F2800 50] Android_PowerVR_GM9xxx, [0000052B3C409F40][0000052B3C710000 50] Android_PowerVR_GM9xxx_Vulkan, [0000052B3C40BD00][0000052B3C715000 50] Android_TegraK1, [0000052B3C40DAC0][0000052B3C717800 50] Android_Unknown_Vulkan, [0000052B3C40C940][0000052B3C71A000 50] Oculus_Quest, [0000052B3C40E1C0][0000052B3C71C800 50] Oculus_Quest2, [0000052B3C40E380][0000052B3C702800 50] HoloLens, 
[2025.03.04-09.29.35:407][  0]LogCsvProfiler: Display: Metadata set : deviceprofile="WindowsEditor"
[2025.03.04-09.29.35:422][  0]LogTurnkeySupport: Turnkey Platform: Android: (Status=Invalid, Installed=, AutoSDK=, MinAllowed=r21a, MaxAllowed=r23a, Flags="Platform_InvalidHostPrerequisites", Error="Android Studio is not installed correctly.|Android SDK directory is not set correctly.")
[2025.03.04-09.29.35:422][  0]LogTurnkeySupport: Turnkey Platform: IOS: (Status=Invalid, Installed=, AutoSDK=, MinAllowed=1100.0.0.0, MaxAllowed=1399.0, Flags="Platform_ValidHostPrerequisites")
[2025.03.04-09.29.35:422][  0]LogTurnkeySupport: Turnkey Platform: Linux: (Status=Invalid, Installed=, AutoSDK=, MinAllowed=v20_clang-13.0.1-centos7, MaxAllowed=v20_clang-13.0.1-centos7, Flags="Platform_ValidHostPrerequisites")
[2025.03.04-09.29.35:422][  0]LogTurnkeySupport: Turnkey Platform: LinuxArm64: (Status=Invalid, Installed=, AutoSDK=, MinAllowed=v20_clang-13.0.1-centos7, MaxAllowed=v20_clang-13.0.1-centos7, Flags="Platform_ValidHostPrerequisites")
[2025.03.04-09.29.35:422][  0]LogTurnkeySupport: Turnkey Platform: Win64: (Status=Valid, Installed=10.0.22621.0, AutoSDK=, MinAllowed=10.0.00000.0, MaxAllowed=10.9.99999.0, Flags="InstalledSdk_ValidVersionExists")
[2025.03.04-09.29.35:651][  0]LogTexture: Display: Oodle Texture Encode Speed settings: Fast: RDO Off Lambda=0, Effort=Normal Final: RDO Off Lambda=0, Effort=Normal
[2025.03.04-09.29.35:937][  0]LogMeshReduction: Using QuadricMeshReduction for automatic static mesh reduction
[2025.03.04-09.29.35:937][  0]LogMeshReduction: Using SimplygonMeshReduction for automatic skeletal mesh reduction
[2025.03.04-09.29.35:938][  0]LogMeshReduction: Using ProxyLODMeshReduction for automatic mesh merging
[2025.03.04-09.29.35:938][  0]LogMeshReduction: No distributed automatic mesh merging module available
[2025.03.04-09.29.35:938][  0]LogMeshMerging: No distributed automatic mesh merging module available
[2025.03.04-09.29.36:042][  0]LogNetVersion: Platformer_Projects 1.0.0, NetCL: 19505902, EngineNetVer: 23, GameNetVer: 0 (Checksum: 3602745582)
[2025.03.04-09.29.36:708][  0]LogSlate: Border
[2025.03.04-09.29.36:708][  0]LogSlate: BreadcrumbButton
[2025.03.04-09.29.36:708][  0]LogSlate: Default
[2025.03.04-09.29.36:708][  0]LogSlate: Icons.Save
[2025.03.04-09.29.36:709][  0]LogSlate: Icons.Toolbar.Settings
[2025.03.04-09.29.36:709][  0]LogSlate: ListView
[2025.03.04-09.29.36:709][  0]LogSlate: SoftwareCursor_CardinalCross
[2025.03.04-09.29.36:709][  0]LogSlate: SoftwareCursor_Grab
[2025.03.04-09.29.36:709][  0]LogSlate: TableView.DarkRow
[2025.03.04-09.29.36:709][  0]LogSlate: TableView.Row
[2025.03.04-09.29.36:709][  0]LogSlate: TreeView
[2025.03.04-09.29.37:484][  0]SourceControl: Source control is disabled
[2025.03.04-09.29.37:601][  0]SourceControl: Source control is disabled
[2025.03.04-09.29.37:601][  0]SourceControl: Source control is disabled
[2025.03.04-09.29.37:865][  0]LogUObjectArray: 20557 objects as part of root set at end of initial load.
[2025.03.04-09.29.37:866][  0]LogUObjectAllocator: 5584256 out of 0 bytes used by permanent object pool.
[2025.03.04-09.29.37:866][  0]LogUObjectArray: CloseDisregardForGC: 0/0 objects in disregard for GC pool
[2025.03.04-09.29.38:669][  0]LogNiagaraDebuggerClient: Niagara Debugger Client Initialized | Session: 5E9CFD144288A6E7CF6EEEA08874670A | Instance: 8BFFC5DF47AAC1008E1D45B0BD1DCC91 (ANDREW-PC061200-10848).
[2025.03.04-09.29.39:386][  0]LogTcpMessaging: Initializing TcpMessaging bridge
[2025.03.04-09.29.39:402][  0]LogUdpMessaging: Initializing bridge on interface 0.0.0.0:0 to multicast group 230.0.0.1:6666.
[2025.03.04-09.29.39:472][  0]LogPython: Using Python 3.9.7
[2025.03.04-09.29.40:879][  0]SourceControl: Source control is disabled
[2025.03.04-09.29.40:899][  0]SourceControl: Source control is disabled
[2025.03.04-09.29.40:912][  0]SourceControl: Source control is disabled
[2025.03.04-09.29.40:938][  0]LogUProjectInfo: Found projects:
[2025.03.04-09.29.41:980][  0]LogOpenImageDenoise: OIDN starting up
[2025.03.04-09.29.42:007][  0]LogAndroidPermission: UAndroidPermissionCallbackProxy::GetInstance
[2025.03.04-09.29.42:044][  0]LogAudioCaptureCore: Display: No Audio Capture implementations found. Audio input will be silent.
[2025.03.04-09.29.42:044][  0]LogAudioCaptureCore: Display: No Audio Capture implementations found. Audio input will be silent.
[2025.03.04-09.29.42:234][  0]LogCollectionManager: Loaded 0 collections in 0.003175 seconds
[2025.03.04-09.29.42:476][  0]LogFileCache: Scanning file cache for directory 'D:/Unreal Projects/MyProject/Super Mario project/platformer-project/Platformer_Projects/Saved/Collections/' took 0.00s
[2025.03.04-09.29.42:476][  0]LogFileCache: Scanning file cache for directory 'D:/Unreal Projects/MyProject/Super Mario project/platformer-project/Platformer_Projects/Content/Developers/Utente/Collections/' took 0.00s
[2025.03.04-09.29.42:476][  0]LogFileCache: Scanning file cache for directory 'D:/Unreal Projects/MyProject/Super Mario project/platformer-project/Platformer_Projects/Content/Collections/' took 0.00s
[2025.03.04-09.29.42:911][  0]LogEngine: Initializing Engine...
[2025.03.04-09.29.42:938][  0]LogStylusInput: Initializing StylusInput subsystem.
[2025.03.04-09.29.42:971][  0]LogStats: UGameplayTagsManager::InitializeManager -  0.001 s
[2025.03.04-09.29.43:558][  0]LogInit: Initializing FReadOnlyCVARCache
[2025.03.04-09.29.43:563][  0]LogSubsystemCollection: Failed to initialize subsystem dependency (WorldPartitionSubsystem)
[2025.03.04-09.29.43:592][  0]LogChaos: FPhysicsSolverBase::AsyncDt:-1.000000
[2025.03.04-09.29.43:673][  0]LogAIModule: Creating AISystem for world Untitled
[2025.03.04-09.29.43:686][  0]LogAudio: Display: Initializing Audio Device Manager...
[2025.03.04-09.29.43:717][  0]LogAudio: Display: Loading Default Audio Settings Objects...
[2025.03.04-09.29.43:722][  0]LogAudio: Display: No default SoundConcurrencyObject specified (or failed to load).
[2025.03.04-09.29.43:722][  0]LogAudio: Display: Registering Engine Module Parameter Interfaces...
[2025.03.04-09.29.43:726][  0]LogAudio: Display: Audio Device Manager Initialized
[2025.03.04-09.29.43:726][  0]LogAudio: Display: Creating Audio Device:                 Id: 1, Scope: Shared, Realtime: True
[2025.03.04-09.29.43:728][  0]LogAudioMixer: Display: Audio Mixer Platform Settings:
[2025.03.04-09.29.43:728][  0]LogAudioMixer: Display: 	Sample Rate:						  48000
[2025.03.04-09.29.43:728][  0]LogAudioMixer: Display: 	Callback Buffer Frame Size Requested: 1024
[2025.03.04-09.29.43:728][  0]LogAudioMixer: Display: 	Callback Buffer Frame Size To Use:	  1024
[2025.03.04-09.29.43:728][  0]LogAudioMixer: Display: 	Number of buffers to queue:			  2
[2025.03.04-09.29.43:728][  0]LogAudioMixer: Display: 	Max Channels (voices):				  0
[2025.03.04-09.29.43:728][  0]LogAudioMixer: Display: 	Number of Async Source Workers:		  0
[2025.03.04-09.29.43:729][  0]LogAudio: Display: AudioDevice MaxSources: 32
[2025.03.04-09.29.43:731][  0]LogAudio: Display: Audio Spatialization Plugin: None (built-in).
[2025.03.04-09.29.43:731][  0]LogAudio: Display: Audio Reverb Plugin: None (built-in).
[2025.03.04-09.29.43:731][  0]LogAudio: Display: Audio Occlusion Plugin: None (built-in).
[2025.03.04-09.29.43:750][  0]LogAudioMixer: Display: Initializing audio mixer using platform API: 'XAudio2'
[2025.03.04-09.29.43:780][  0]LogAudioMixer: Display: Using Audio Hardware Device Auricolare e microtelefono (G435 Wireless Gaming Headset)
[2025.03.04-09.29.43:784][  0]LogAudioMixer: Display: Initializing Sound Submixes...
[2025.03.04-09.29.43:812][  0]LogAudioMixer: Display: Creating Master Submix 'MasterSubmixDefault'
[2025.03.04-09.29.43:812][  0]LogAudioMixer: Display: Creating Master Submix 'MasterReverbSubmixDefault'
[2025.03.04-09.29.43:816][  0]LogAudioMixer: FMixerPlatformXAudio2::StartAudioStream() called. InstanceID=1
[2025.03.04-09.29.43:817][  0]LogAudioMixer: Display: Output buffers initialized: Frames=1024, Channels=2, Samples=2048, InstanceID=1
[2025.03.04-09.29.43:818][  0]LogAudioMixer: Display: Starting AudioMixerPlatformInterface::RunInternal(), InstanceID=1
[2025.03.04-09.29.43:818][  0]LogAudioMixer: Display: FMixerPlatformXAudio2::SubmitBuffer() called for the first time. InstanceID=1
[2025.03.04-09.29.43:818][  0]LogInit: FAudioDevice initialized.
[2025.03.04-09.29.43:818][  0]LogAudio: Display: Audio Device (ID: 1) registered with world 'Untitled'.
[2025.03.04-09.29.43:819][  0]LogNetVersion: Set ProjectVersion to 1.0.0.0. Version Checksum will be recalculated on next use.
[2025.03.04-09.29.43:819][  0]LogInit: Texture streaming: Enabled
[2025.03.04-09.29.43:861][  0]LogAnalytics: Display: [UEEditor.Rocket.Release] APIServer = https://datarouter.ol.epicgames.com/. AppVersion = 5.0.3-20979098+++UE5+Release-5.0
[2025.03.04-09.29.43:873][  0]LogEngineSessionManager: EngineSessionManager initialized
[2025.03.04-09.29.43:911][  0]LogCsvProfiler: Display: Metadata set : largeworldcoordinates="1"
[2025.03.04-09.29.43:925][  0]LogLiveCoding: Display: Starting LiveCoding
[2025.03.04-09.29.43:925][  0]LogLiveCoding: Display: LiveCodingConsole Arguments: UnrealEditor Win64 Development
[2025.03.04-09.29.46:273][  0]LogLiveCoding: Display: First instance in process group "UE_Platformer_Projects_0xc69347b8", spawning console
[2025.03.04-09.29.46:273][  0]LogLiveCoding: Display: Waiting for server
[2025.03.04-09.29.46:273][  0]LogLiveCoding: Display: Successfully initialized, removing startup thread
[2025.03.04-09.29.47:208][  0]LogInit: Transaction tracking system initialized
[2025.03.04-09.29.47:355][  0]BlueprintLog: New page: Editor Load
[2025.03.04-09.29.47:747][  0]LocalizationService: Localization service is disabled
[2025.03.04-09.29.47:870][  0]TimingProfiler: Initialize
[2025.03.04-09.29.47:871][  0]TimingProfiler: OnSessionChanged
[2025.03.04-09.29.47:872][  0]LoadingProfiler: Initialize
[2025.03.04-09.29.47:872][  0]LoadingProfiler: OnSessionChanged
[2025.03.04-09.29.47:876][  0]NetworkingProfiler: Initialize
[2025.03.04-09.29.47:880][  0]NetworkingProfiler: OnSessionChanged
[2025.03.04-09.29.47:880][  0]MemoryProfiler: Initialize
[2025.03.04-09.29.47:880][  0]MemoryProfiler: OnSessionChanged
[2025.03.04-09.29.49:143][  0]LogFileCache: Scanning file cache for directory 'D:/Unreal Projects/MyProject/Super Mario project/platformer-project/Platformer_Projects/Content/' took 0.01s
[2025.03.04-09.29.49:143][  0]LogLevelSequenceEditor: LevelSequenceEditor subsystem initialized.
[2025.03.04-09.29.49:456][  0]LogInit: Display: Engine is initialized. Leaving FEngineLoop::Init()
[2025.03.04-09.29.49:465][  0]SourceControl: Source control is disabled
[2025.03.04-09.29.49:466][  0]LogUnrealEdMisc: Loading editor; pre map load, took 34.969
[2025.03.04-09.29.49:471][  0]Cmd: MAP LOAD FILE="D:/Unreal Projects/MyProject/Super Mario project/platformer-project/Platformer_Projects/Content/ThirdPerson/Maps/ThirdPersonMap.umap" TEMPLATE=0 SHOWPROGRESS=1 FEATURELEVEL=3
[2025.03.04-09.29.49:516][  0]LightingResults: New page: Lighting Build
[2025.03.04-09.29.49:531][  0]LogWorld: UWorld::CleanupWorld for Untitled, bSessionEnded=true, bCleanupResources=true
[2025.03.04-09.29.49:536][  0]LogSlate: InvalidateAllWidgets triggered.  All widgets were invalidated
[2025.03.04-09.29.49:537][  0]MapCheck: New page: Map Check
[2025.03.04-09.29.49:537][  0]LightingResults: New page: Lighting Build
[2025.03.04-09.29.49:562][  0]LogAudio: Display: Audio Device unregistered from world 'None'.
[2025.03.04-09.29.49:582][  0]LogUObjectHash: Compacting FUObjectHashTables data took   0.30ms
[2025.03.04-09.29.53:786][  0]LogAudio: Display: Audio Device (ID: 1) registered with world 'ThirdPersonMap'.
[2025.03.04-09.29.53:798][  0]LogChaos: FPhysicsSolverBase::AsyncDt:-1.000000
[2025.03.04-09.29.53:799][  0]LogAIModule: Creating AISystem for world ThirdPersonMap
[2025.03.04-09.29.53:825][  0]LogWorldPartition: Display: WorldPartition initialize started...
[2025.03.04-09.29.53:826][  0]LogWorldPartition: UWorldPartition::Initialize(IsEditor=1, IsGame=0, IsCooking=0)
[2025.03.04-09.29.54:454][  0]LogStaticMesh: StaticMesh /Game/StarterContent/Shapes/Shape_Cone.Shape_Cone should be resaved to improve async compilation performance.
[2025.03.04-09.29.54:513][  0]LogStaticMesh: StaticMesh /Game/StarterContent/Architecture/Pillar_50x500.Pillar_50x500 should be resaved to improve async compilation performance.
[2025.03.04-09.29.55:092][  0]LogStaticMesh: StaticMesh /Game/StarterContent/Architecture/SM_AssetPlatform.SM_AssetPlatform should be resaved to improve async compilation performance.
[2025.03.04-09.29.55:803][  0]LogWorldPartition: Display: WorldPartition initialize took 1.97 sec
[2025.03.04-09.29.55:841][  0]LogEditorServer: Finished looking for orphan Actors (0.000 secs)
[2025.03.04-09.29.55:863][  0]LogUObjectHash: Compacting FUObjectHashTables data took   0.55ms
[2025.03.04-09.29.55:866][  0]Cmd: MAP CHECKDEP NOCLEARLOG
[2025.03.04-09.29.55:867][  0]MapCheck: Map check complete: 0 Error(s), 0 Warning(s), took 1ms to complete.
[2025.03.04-09.29.55:867][  0]LogFileHelpers: Loading map 'ThirdPersonMap' took 6.398
[2025.03.04-09.29.55:939][  0]LogUnrealEdMisc: Total Editor Startup Time, took 41.442
[2025.03.04-09.29.55:939][  0]LogShaderCompilers: Display: ================================================
[2025.03.04-09.29.55:939][  0]LogShaderCompilers: Display: === FShaderJobCache stats ===
[2025.03.04-09.29.55:939][  0]LogShaderCompilers: Display: Total job queries 0, among them cache hits 0 (0.00%)
[2025.03.04-09.29.55:940][  0]LogShaderCompilers: Display: Tracking 0 distinct input hashes that result in 0 distinct outputs (0.00%)
[2025.03.04-09.29.55:940][  0]LogShaderCompilers: Display: RAM used: 0.00 MB (0.00 GB) of 819.20 MB (0.80 GB) budget. Usage: 0.00%
[2025.03.04-09.29.55:940][  0]LogShaderCompilers: Display: === Shader Compilation stats ===
[2025.03.04-09.29.55:940][  0]LogShaderCompilers: Display: Shaders Compiled: 0
[2025.03.04-09.29.55:940][  0]LogShaderCompilers: Display: Jobs assigned 0, completed 0 (0.00%)
[2025.03.04-09.29.55:940][  0]LogShaderCompilers: Display: Time at least one job was in flight (either pending or executed): 0.00 s
[2025.03.04-09.29.55:940][  0]LogShaderCompilers: Display: ================================================
[2025.03.04-09.29.56:129][  0]LogSlate: Updating window title bar state: overlay mode, drag disabled, window buttons hidden, title bar hidden
[2025.03.04-09.29.56:138][  0]LogSlate: Updating window title bar state: overlay mode, drag disabled, window buttons hidden, title bar hidden
[2025.03.04-09.29.56:143][  0]LogSlate: Updating window title bar state: overlay mode, drag disabled, window buttons hidden, title bar hidden
[2025.03.04-09.29.56:148][  0]LogSlate: Updating window title bar state: overlay mode, drag disabled, window buttons hidden, title bar hidden
[2025.03.04-09.29.56:242][  0]LogPakFile: Display: Mounted Pak file 'C:/Program Files/Epic Games/UE_5.0/FeaturePacks/StarterContent.upack', mount point: 'root:/'
[2025.03.04-09.29.56:243][  0]LogPakFile: Display: Mount point: 'root:/' is not mounted to a valid Root Path yet, assets in this pak file may not be accessible until a corresponding UFS Mount Point is added through FPackageName::RegisterMountPoint.
[2025.03.04-09.29.56:256][  0]LogPakFile: Display: Mounted Pak file 'C:/Program Files/Epic Games/UE_5.0/FeaturePacks/TP_FirstPerson.upack', mount point: 'root:/'
[2025.03.04-09.29.56:256][  0]LogPakFile: Display: Mount point: 'root:/' is not mounted to a valid Root Path yet, assets in this pak file may not be accessible until a corresponding UFS Mount Point is added through FPackageName::RegisterMountPoint.
[2025.03.04-09.29.56:267][  0]LogPakFile: Display: Mounted Pak file 'C:/Program Files/Epic Games/UE_5.0/FeaturePacks/TP_FirstPersonBP.upack', mount point: 'root:/'
[2025.03.04-09.29.56:267][  0]LogPakFile: Display: Mount point: 'root:/' is not mounted to a valid Root Path yet, assets in this pak file may not be accessible until a corresponding UFS Mount Point is added through FPackageName::RegisterMountPoint.
[2025.03.04-09.29.56:278][  0]LogPakFile: Display: Mounted Pak file 'C:/Program Files/Epic Games/UE_5.0/FeaturePacks/TP_HandheldARBP.upack', mount point: 'root:/'
[2025.03.04-09.29.56:278][  0]LogPakFile: Display: Mount point: 'root:/' is not mounted to a valid Root Path yet, assets in this pak file may not be accessible until a corresponding UFS Mount Point is added through FPackageName::RegisterMountPoint.
[2025.03.04-09.29.56:296][  0]LogPakFile: Display: Mounted Pak file 'C:/Program Files/Epic Games/UE_5.0/FeaturePacks/TP_ThirdPerson.upack', mount point: 'root:/'
[2025.03.04-09.29.56:296][  0]LogPakFile: Display: Mount point: 'root:/' is not mounted to a valid Root Path yet, assets in this pak file may not be accessible until a corresponding UFS Mount Point is added through FPackageName::RegisterMountPoint.
[2025.03.04-09.29.56:306][  0]LogPakFile: Display: Mounted Pak file 'C:/Program Files/Epic Games/UE_5.0/FeaturePacks/TP_ThirdPersonBP.upack', mount point: 'root:/'
[2025.03.04-09.29.56:306][  0]LogPakFile: Display: Mount point: 'root:/' is not mounted to a valid Root Path yet, assets in this pak file may not be accessible until a corresponding UFS Mount Point is added through FPackageName::RegisterMountPoint.
[2025.03.04-09.29.56:315][  0]LogPakFile: Display: Mounted Pak file 'C:/Program Files/Epic Games/UE_5.0/FeaturePacks/TP_TopDown.upack', mount point: 'root:/'
[2025.03.04-09.29.56:315][  0]LogPakFile: Display: Mount point: 'root:/' is not mounted to a valid Root Path yet, assets in this pak file may not be accessible until a corresponding UFS Mount Point is added through FPackageName::RegisterMountPoint.
[2025.03.04-09.29.56:326][  0]LogPakFile: Display: Mounted Pak file 'C:/Program Files/Epic Games/UE_5.0/FeaturePacks/TP_TopDownBP.upack', mount point: 'root:/'
[2025.03.04-09.29.56:326][  0]LogPakFile: Display: Mount point: 'root:/' is not mounted to a valid Root Path yet, assets in this pak file may not be accessible until a corresponding UFS Mount Point is added through FPackageName::RegisterMountPoint.
[2025.03.04-09.29.56:334][  0]LogPakFile: Display: Mounted Pak file 'C:/Program Files/Epic Games/UE_5.0/FeaturePacks/TP_VehicleAdvBP.upack', mount point: 'root:/'
[2025.03.04-09.29.56:334][  0]LogPakFile: Display: Mount point: 'root:/' is not mounted to a valid Root Path yet, assets in this pak file may not be accessible until a corresponding UFS Mount Point is added through FPackageName::RegisterMountPoint.
[2025.03.04-09.29.56:350][  0]LogPakFile: Display: Mounted Pak file 'C:/Program Files/Epic Games/UE_5.0/FeaturePacks/TP_VirtualRealityBP.upack', mount point: 'root:/'
[2025.03.04-09.29.56:350][  0]LogPakFile: Display: Mount point: 'root:/' is not mounted to a valid Root Path yet, assets in this pak file may not be accessible until a corresponding UFS Mount Point is added through FPackageName::RegisterMountPoint.
[2025.03.04-09.29.56:350][  0]LogFeaturePack: Error: Error in Feature pack C:/Program Files/Epic Games/UE_5.0/FeaturePacks/TP_VirtualRealityBP.upack. Failed to parse manifest: Invalid Json Token. Line: 43 Ch: 4
[2025.03.04-09.29.57:045][  0]LogSlate: Only BGRA pngs, bmps or icos are supported in by External Image Picker
[2025.03.04-09.29.57:198][  0]LogUObjectGlobals: Warning: Failed to find object 'Class None.Physics'
[2025.03.04-09.29.57:847][  0]LogSlate: Took 0.007079 seconds to synchronously load lazily loaded font '../../../Engine/Content/Slate/Fonts/Roboto-Regular.ttf' (155K)
[2025.03.04-09.29.57:860][  0]LogSlate: Took 0.007075 seconds to synchronously load lazily loaded font '../../../Engine/Content/Slate/Fonts/Roboto-Bold.ttf' (160K)
[2025.03.04-09.29.57:867][  0]LogSlate: Took 0.006535 seconds to synchronously load lazily loaded font '../../../Engine/Content/Editor/Slate/Fonts/FontAwesome.ttf' (139K)
[2025.03.04-09.29.57:875][  0]LogSlate: Took 0.006605 seconds to synchronously load lazily loaded font '../../../Engine/Content/Slate/Fonts/DroidSansMono.ttf' (77K)
[2025.03.04-09.29.57:901][  0]LogViewport: Scene viewport resized to 1531x800, mode Windowed.
[2025.03.04-09.29.57:992][  0]LogSlate: Took 0.007726 seconds to synchronously load lazily loaded font '../../../Engine/Content/Slate/Fonts/Roboto-Light.ttf' (167K)
[2025.03.04-09.29.58:463][  0]LogStall: Startup...
[2025.03.04-09.29.58:464][  0]LogStall: Startup complete.
[2025.03.04-09.29.58:487][  0]LogLoad: (Engine Initialization) Total time: 43.99 seconds
[2025.03.04-09.29.58:487][  0]LogLoad: (Engine Initialization) Total Blueprint compile time: 0.00 seconds
[2025.03.04-09.29.58:602][  0]LogAssetRegistry: Asset discovery search completed in 23.7865 seconds
[2025.03.04-09.29.58:636][  0]LogCollectionManager: Fixed up redirectors for 0 collections in 0.000002 seconds (updated 0 objects)
[2025.03.04-09.29.58:642][  0]LogContentStreaming: Texture pool size now 1000 MB
[2025.03.04-09.30.00:570][ 81]LogNavigationDataBuild: Navigation data generation finished in /Game/ThirdPerson/Maps/ThirdPersonMap.
[2025.03.04-09.30.02:995][353]LogPackageName: Warning: FPackagePath::TryFromMountedName was passed an ObjectPath (/Game/ThirdPerson/Blueprints/Goomba/Goomba.Goomba) rather than a PackageName or FilePath; it will be converted to the PackageName. Accepting ObjectPaths is deprecated behavior and will be removed in a future release; TryFromMountedName will fail on ObjectPaths.
[2025.03.04-09.30.02:996][353]LogAssetEditorSubsystem: Opening Asset editor for Blueprint /Game/ThirdPerson/Blueprints/Goomba/Goomba.Goomba
[2025.03.04-09.30.02:998][353]LogChaos: FPhysicsSolverBase::AsyncDt:-1.000000
